<?xml version="1.0" encoding="UTF-8" standalone="no"?>
<!-- Created with Inkscape (http://www.inkscape.org/) -->

<svg
   xmlns:dc="http://purl.org/dc/elements/1.1/"
   xmlns:cc="http://creativecommons.org/ns#"
   xmlns:rdf="http://www.w3.org/1999/02/22-rdf-syntax-ns#"
   xmlns:svg="http://www.w3.org/2000/svg"
   xmlns="http://www.w3.org/2000/svg"
   xmlns:sodipodi="http://sodipodi.sourceforge.net/DTD/sodipodi-0.dtd"
   xmlns:inkscape="http://www.inkscape.org/namespaces/inkscape"
   width="396.8504"
   height="279.68503"
   viewBox="0 0 105 74"
   version="1.1"
   id="svg8"
   inkscape:version="0.92.3 (2405546, 2018-03-11)"
   sodipodi:docname="canevas.svg">
  <defs
     id="defs2">
    <filter
       x="-0.5"
       width="2"
       height="2"
       y="-0.5"
       id="filter849-3"
       inkscape:label="Roughen"
       style="color-interpolation-filters:sRGB">
      <feTurbulence
         id="feTurbulence845-6"
         result="turbulence"
         baseFrequency="0.013 0.013"
         seed="1"
         numOctaves="5"
         type="fractalNoise" />
      <feDisplacementMap
         id="feDisplacementMap847-7"
         xChannelSelector="R"
         yChannelSelector="G"
         scale="6.6"
         in2="turbulence"
         in="SourceGraphic" />
    </filter>
  </defs>
  <sodipodi:namedview
     id="base"
     pagecolor="#ffffff"
     bordercolor="#666666"
     borderopacity="1.0"
     inkscape:pageopacity="0.0"
     inkscape:pageshadow="2"
     inkscape:zoom="2.2990147"
     inkscape:cx="198.4252"
     inkscape:cy="139.84251"
     inkscape:document-units="px"
     inkscape:current-layer="layer1"
     showgrid="false"
     units="px"
     inkscape:window-width="1600"
     inkscape:window-height="836"
     inkscape:window-x="0"
     inkscape:window-y="27"
     inkscape:window-maximized="1"
     showguides="true"
     inkscape:guide-bbox="true">
    <sodipodi:guide
       position="52.499948,79.375001"
       orientation="1,0"
       id="guide135"
       inkscape:locked="false"
       inkscape:label="Milieu"
       inkscape:color="rgb(0,0,255)" />
    <sodipodi:guide
       position="104.9999,79.375001"
       orientation="1,0"
       id="guide137"
       inkscape:locked="false"
       inkscape:label="Droite"
       inkscape:color="rgb(0,0,255)" />
    <sodipodi:guide
       position="0,79.375001"
       orientation="1,0"
       id="guide151"
       inkscape:locked="false"
       inkscape:label="Gauche"
       inkscape:color="rgb(0,0,255)" />
  </sodipodi:namedview>
  <metadata
     id="metadata5">
    <rdf:RDF>
      <cc:Work
         rdf:about="">
        <dc:format>image/svg+xml</dc:format>
        <dc:type
           rdf:resource="http://purl.org/dc/dcmitype/StillImage" />
        <dc:title />
      </cc:Work>
    </rdf:RDF>
  </metadata>
  <g
     inkscape:label="Calque 1"
     inkscape:groupmode="layer"
     id="layer1"
     transform="translate(0,-222.99998)">
    <flowRoot
       xml:space="preserve"
       id="flowRoot125"
       style="font-style:normal;font-variant:normal;font-weight:normal;font-stretch:normal;font-size:42.66666412px;line-height:1.25;font-family:Schoolbell;-inkscape-font-specification:Schoolbell;text-align:center;letter-spacing:0px;word-spacing:0px;text-anchor:middle;fill:#000000;fill-opacity:1;stroke:none"
       transform="matrix(0.26458334,0,0,0.26458334,0,222.99999)"><flowRegion
         id="flowRegion127"
         style="font-size:42.66666412px;text-align:center;text-anchor:middle"><rect
           id="rect129"
           width="396.84991"
           height="60.025715"
           x="0"
           y="7.3944674"
           style="font-size:42.66666412px;text-align:center;text-anchor:middle" /></flowRegion><flowPara
         id="flowPara131">Tissus</flowPara></flowRoot>    <g
       id="g866"
       transform="translate(0,5.4155345)">
      <flowRoot
         transform="matrix(0.26458334,0,0,0.26458334,0,228.29168)"
         style="font-style:normal;font-variant:normal;font-weight:normal;font-stretch:normal;font-size:32px;line-height:1.25;font-family:Schoolbell;-inkscape-font-specification:Schoolbell;text-align:center;letter-spacing:0px;word-spacing:0px;text-anchor:middle;fill:#000000;fill-opacity:1;stroke:none"
         id="flowRoot139"
         xml:space="preserve"><flowRegion
           style="text-align:center;text-anchor:middle"
           id="flowRegion141"><rect
             style="text-align:center;text-anchor:middle"
             y="81.33918"
             x="198.4252"
             height="113.96187"
             width="198.4248"
             id="rect143" /></flowRegion><flowPara
           id="flowPara145">Fait partie d'une énigme</flowPara></flowRoot>    </g>
    <g
       transform="matrix(1.8866104,0,0,1.8866104,-61.86899,33.575611)"
       id="layer1-3"
       inkscape:label="Calque 1">
      <text
         id="text944"
         y="116.24889"
         x="46.712521"
         style="font-style:normal;font-variant:normal;font-weight:normal;font-stretch:normal;font-size:3.52777767px;line-height:0.64999998;font-family:Schoolbell;-inkscape-font-specification:Schoolbell;text-align:center;letter-spacing:-0.23283333px;word-spacing:0px;text-anchor:middle;fill:#000000;fill-opacity:1;stroke:none;stroke-width:0.26458332"
         xml:space="preserve"><tspan
           style="line-height:0.64999998;letter-spacing:-0.23283333px;stroke-width:0.26458332"
           y="116.24889"
           x="46.596104"
           id="tspan942"
           sodipodi:role="line">HIHIHIHIHIHIHIH</tspan><tspan
           id="tspan946"
           style="line-height:0.64999998;letter-spacing:-0.23283333px;stroke-width:0.26458332"
           y="118.54195"
           x="46.596104"
           sodipodi:role="line">IHIHTHIHIHIHIHI</tspan><tspan
           id="tspan948"
           style="line-height:0.64999998;letter-spacing:-0.23283333px;stroke-width:0.26458332"
           y="120.83501"
           x="46.596104"
           sodipodi:role="line">HIHIHIHIHTHIHIH</tspan><tspan
           id="tspan950"
           style="line-height:0.64999998;letter-spacing:-0.23283333px;stroke-width:0.26458332"
           y="123.12806"
           x="46.596104"
           sodipodi:role="line">IHIHIHIHIHIHINI</tspan><tspan
           id="tspan952"
           style="line-height:0.64999998;letter-spacing:-0.23283333px;stroke-width:0.26458332"
           y="125.42111"
           x="46.596104"
           sodipodi:role="line">HIHIHIHIHIHIHIH</tspan><tspan
           id="tspan954"
           style="line-height:0.64999998;letter-spacing:-0.23283333px;stroke-width:0.26458332"
           y="127.71417"
           x="46.596104"
           sodipodi:role="line">IHIHIHIHIHIHIHI</tspan><tspan
           id="tspan956"
           style="line-height:0.64999998;letter-spacing:-0.23283333px;stroke-width:0.26458332"
           y="130.00723"
           x="46.596104"
           sodipodi:role="line">HIHIHIHIHIHIHIH</tspan><tspan
           id="tspan958"
           style="line-height:0.64999998;letter-spacing:-0.23283333px;stroke-width:0.26458332"
           y="132.30028"
           x="46.596104"
           sodipodi:role="line">INIHIHIHIHIHIHI</tspan><tspan
           id="tspan960"
           style="line-height:0.64999998;letter-spacing:-0.23283333px;stroke-width:0.26458332"
           y="134.59334"
           x="46.596104"
           sodipodi:role="line">HIHIHIHIHIHIHIH</tspan></text>
    </g>
  </g>
</svg>
