<?xml version="1.0" encoding="UTF-8" standalone="no"?>
<!-- Created with Inkscape (http://www.inkscape.org/) -->

<svg
   xmlns:dc="http://purl.org/dc/elements/1.1/"
   xmlns:cc="http://creativecommons.org/ns#"
   xmlns:rdf="http://www.w3.org/1999/02/22-rdf-syntax-ns#"
   xmlns:svg="http://www.w3.org/2000/svg"
   xmlns="http://www.w3.org/2000/svg"
   xmlns:sodipodi="http://sodipodi.sourceforge.net/DTD/sodipodi-0.dtd"
   xmlns:inkscape="http://www.inkscape.org/namespaces/inkscape"
   width="22.456083mm"
   height="21.016115mm"
   viewBox="0 0 22.456083 21.016115"
   version="1.1"
   id="svg8"
   inkscape:version="0.92.3 (2405546, 2018-03-11)"
   sodipodi:docname="enigme-coffre.svg"
   inkscape:export-filename="/home/steeve/Projets/le-pacte-des-heros/la-grotte-inconnue/enigme-coffre.png"
   inkscape:export-xdpi="226.21933"
   inkscape:export-ydpi="226.21933">
  <defs
     id="defs2" />
  <sodipodi:namedview
     id="base"
     pagecolor="#ffffff"
     bordercolor="#666666"
     borderopacity="1.0"
     inkscape:pageopacity="0.0"
     inkscape:pageshadow="2"
     inkscape:zoom="8.0950778"
     inkscape:cx="39.595462"
     inkscape:cy="39.715507"
     inkscape:document-units="mm"
     inkscape:current-layer="layer1"
     showgrid="false"
     fit-margin-top="0"
     fit-margin-left="0"
     fit-margin-right="0"
     fit-margin-bottom="0"
     inkscape:window-width="1600"
     inkscape:window-height="836"
     inkscape:window-x="0"
     inkscape:window-y="27"
     inkscape:window-maximized="1" />
  <metadata
     id="metadata5">
    <rdf:RDF>
      <cc:Work
         rdf:about="">
        <dc:format>image/svg+xml</dc:format>
        <dc:type
           rdf:resource="http://purl.org/dc/dcmitype/StillImage" />
        <dc:title></dc:title>
      </cc:Work>
    </rdf:RDF>
  </metadata>
  <g
     inkscape:label="Calque 1"
     inkscape:groupmode="layer"
     id="layer1"
     transform="translate(-35.479516,-113.64096)">
    <text
       xml:space="preserve"
       style="font-style:normal;font-variant:normal;font-weight:normal;font-stretch:normal;font-size:3.52777767px;line-height:0.64999998;font-family:Schoolbell;-inkscape-font-specification:Schoolbell;text-align:center;letter-spacing:-0.23283333px;word-spacing:0px;text-anchor:middle;fill:#000000;fill-opacity:1;stroke:none;stroke-width:0.26458332"
       x="46.712521"
       y="116.24889"
       id="text944"><tspan
         sodipodi:role="line"
         id="tspan942"
         x="46.596104"
         y="116.24889"
         style="line-height:0.64999998;letter-spacing:-0.23283333px;stroke-width:0.26458332">HIHIHIHIHIHIHIH</tspan><tspan
         sodipodi:role="line"
         x="46.596104"
         y="118.54195"
         style="line-height:0.64999998;letter-spacing:-0.23283333px;stroke-width:0.26458332"
         id="tspan946">IHIHTHIHIHIHIHI</tspan><tspan
         sodipodi:role="line"
         x="46.596104"
         y="120.83501"
         style="line-height:0.64999998;letter-spacing:-0.23283333px;stroke-width:0.26458332"
         id="tspan948">HIHIHIHIHTHIHIH</tspan><tspan
         sodipodi:role="line"
         x="46.596104"
         y="123.12806"
         style="line-height:0.64999998;letter-spacing:-0.23283333px;stroke-width:0.26458332"
         id="tspan950">IHIHIHIHIHIHINI</tspan><tspan
         sodipodi:role="line"
         x="46.596104"
         y="125.42111"
         style="line-height:0.64999998;letter-spacing:-0.23283333px;stroke-width:0.26458332"
         id="tspan952">HIHIHIHIHIHIHIH</tspan><tspan
         sodipodi:role="line"
         x="46.596104"
         y="127.71417"
         style="line-height:0.64999998;letter-spacing:-0.23283333px;stroke-width:0.26458332"
         id="tspan954">IHIHIHIHIHIHIHI</tspan><tspan
         sodipodi:role="line"
         x="46.596104"
         y="130.00723"
         style="line-height:0.64999998;letter-spacing:-0.23283333px;stroke-width:0.26458332"
         id="tspan956">HIHIHIHIHIHIHIH</tspan><tspan
         sodipodi:role="line"
         x="46.596104"
         y="132.30028"
         style="line-height:0.64999998;letter-spacing:-0.23283333px;stroke-width:0.26458332"
         id="tspan958">INIHIHIHIHIHIHI</tspan><tspan
         sodipodi:role="line"
         x="46.596104"
         y="134.59334"
         style="line-height:0.64999998;letter-spacing:-0.23283333px;stroke-width:0.26458332"
         id="tspan960">HIHIHIHIHIHIHIH</tspan></text>
  </g>
</svg>
