<?xml version="1.0" encoding="UTF-8" standalone="no"?>
<!-- Created with Inkscape (http://www.inkscape.org/) -->

<svg
   width="396.8504"
   height="279.68503"
   viewBox="0 0 105 74"
   version="1.1"
   id="svg8"
   inkscape:version="1.3.2 (091e20ef0f, 2023-11-25)"
   sodipodi:docname="briquet.svg"
   xml:space="preserve"
   xmlns:inkscape="http://www.inkscape.org/namespaces/inkscape"
   xmlns:sodipodi="http://sodipodi.sourceforge.net/DTD/sodipodi-0.dtd"
   xmlns:xlink="http://www.w3.org/1999/xlink"
   xmlns="http://www.w3.org/2000/svg"
   xmlns:svg="http://www.w3.org/2000/svg"
   xmlns:rdf="http://www.w3.org/1999/02/22-rdf-syntax-ns#"
   xmlns:cc="http://creativecommons.org/ns#"
   xmlns:dc="http://purl.org/dc/elements/1.1/"><defs
     id="defs2"><filter
       x="-0.1"
       width="1.2"
       height="1.2"
       y="-0.1"
       inkscape:auto-region="false"
       id="filter849-3"
       inkscape:label="Roughen"
       style="color-interpolation-filters:sRGB"><feTurbulence
         id="feTurbulence845-6"
         result="turbulence"
         baseFrequency="0.013 0.013"
         seed="1"
         numOctaves="5"
         type="fractalNoise" /><feDisplacementMap
         id="feDisplacementMap847-7"
         xChannelSelector="R"
         yChannelSelector="G"
         scale="6.6"
         in2="turbulence"
         in="SourceGraphic" /></filter><linearGradient
       id="linearGradient3828"><stop
         id="stop3830"
         style="stop-color:#2800aa"
         offset="0" /><stop
         id="stop3832"
         style="stop-color:#2800aa;stop-opacity:0"
         offset="1" /></linearGradient><pattern
       id="pattern5285"
       width="132.04416"
       patternUnits="userSpaceOnUse"
       patternTransform="translate(710.06 -63.767)"
       height="169.58907"><g
         id="Layer_x0020_1"
         style="fill-rule:evenodd"
         transform="matrix(17.937 0 0 17.111 .00015530 .00010266)"><path
           id="path10"
           class="fil0"
           inkscape:connector-curvature="0"
           d="m7.3615 2.7554c-0.01615 0-0.032012-0.00129-0.047476-0.00374-0.0018 0.012449-0.00439 0.024646-0.00774 0.036524 0.017862-0.00352 0.036327-0.00537 0.055216-0.00537v0.56891c-0.021461 0-0.04237-0.0024-0.062472-0.00691-0.00218 0.028618-0.00887 0.05598-0.019354 0.08137 0.025791-0.00828 0.053287-0.012772 0.081827-0.012772v0.53464c-0.027441 0-0.053921-0.00415-0.078843-0.011835l0.0000197 0.00155c0 0.050362-0.014909 0.097232-0.040528 0.13649 0.035472-0.019291 0.076138-0.030248 0.11935-0.030248v0.50037c-0.034579 0-0.067524-0.00702-0.097484-0.019713 0.0009922 0.00872 0.00152 0.017583 0.00152 0.026567 0 0.12868-0.10437 0.23304-0.23305 0.23304-0.12869 0-0.23305-0.10436-0.23305-0.23304 0-0.011311 0.0008308-0.022441 0.00239-0.033323-0.033713 0.016921-0.071776 0.026469-0.11206 0.026469-0.034579 0-0.067516-0.00702-0.097472-0.019709 0.0009921 0.00872 0.00151 0.017583 0.00151 0.026563 0 0.12868-0.10437 0.23304-0.23305 0.23304-0.12869 0-0.23305-0.10436-0.23305-0.23304 0-0.011311 0.0008307-0.022441 0.00239-0.033323-0.033713 0.016921-0.071776 0.026469-0.11206 0.026469-0.034579 0-0.067516-0.00702-0.097472-0.019709 0.0009921 0.00872 0.00151 0.017583 0.00151 0.026563 0 0.12868-0.10437 0.23304-0.23305 0.23304-0.12869 0-0.23305-0.10436-0.23305-0.23304 0-0.011311 0.0008307-0.022441 0.00239-0.033323-0.033713 0.016921-0.071776 0.026469-0.11206 0.026469-0.034579 0-0.067516-0.00702-0.097472-0.019709 0.0009922 0.00872 0.00151 0.017583 0.00151 0.026563 0 0.12868-0.10437 0.23304-0.23305 0.23304-0.12869 0-0.23305-0.10436-0.23305-0.23304 0-0.011311 0.0008307-0.022441 0.00239-0.033323-0.033713 0.016921-0.071776 0.026469-0.11206 0.026469-0.034579 0-0.067516-0.00702-0.097472-0.019709 0.0009921 0.00872 0.00151 0.017583 0.00151 0.026563 0 0.12868-0.10437 0.23304-0.23305 0.23304-0.12869 0-0.23305-0.10436-0.23305-0.23304 0-0.011311 0.0008307-0.022441 0.00239-0.033323-0.033713 0.016921-0.071776 0.026469-0.11206 0.026469-0.034579 0-0.067516-0.00702-0.097472-0.019709 0.0009921 0.00872 0.00151 0.017583 0.00151 0.026563 0 0.12868-0.10437 0.23304-0.23305 0.23304-0.12869 0-0.23305-0.10436-0.23305-0.23304 0-0.011311 0.0008307-0.022441 0.00239-0.033323-0.033713 0.016921-0.071776 0.026469-0.11206 0.026469-0.034579 0-0.067516-0.00702-0.097472-0.019709 0.0009921 0.00872 0.00151 0.017583 0.00151 0.026563 0 0.12868-0.10437 0.23304-0.23305 0.23304-0.12869 0-0.23305-0.10436-0.23305-0.23304 0-0.011311 0.0008307-0.022441 0.00239-0.033323-0.033713 0.016921-0.071776 0.026469-0.11206 0.026469-0.034579 0-0.067516-0.00702-0.097472-0.019709 0.0009922 0.00872 0.00151 0.017583 0.00151 0.026563 0 0.12868-0.10437 0.23304-0.23305 0.23304-0.12869 0-0.23305-0.10436-0.23305-0.23304 0-0.011311 0.0008307-0.022441 0.00239-0.033323-0.033713 0.016921-0.071776 0.026469-0.11206 0.026469-0.034579 0-0.067516-0.00702-0.097472-0.019709 0.0009921 0.00872 0.00151 0.017583 0.00151 0.026563 0 0.12868-0.10437 0.23304-0.23305 0.23304-0.12869 0-0.23305-0.10436-0.23305-0.23304 0-0.011311 0.0008307-0.022441 0.00239-0.033323-0.033713 0.016921-0.071776 0.026469-0.11206 0.026469-0.034579 0-0.067516-0.00702-0.097472-0.019709 0.0009921 0.00872 0.00151 0.017583 0.00151 0.026563 0 0.12868-0.10437 0.23304-0.23305 0.23304-0.12869 0-0.23305-0.10436-0.23305-0.23304 0-0.011311 0.0008307-0.022441 0.00239-0.033323-0.033713 0.016921-0.071776 0.026469-0.11206 0.026469-0.034579 0-0.067516-0.00702-0.097472-0.019709 0.00099212 0.00872 0.001512 0.017583 0.001512 0.026563 0 0.12868-0.10437 0.23304-0.23305 0.23304-0.12869 0-0.23305-0.10436-0.23305-0.23304 0-0.0071 0.00034252-0.014122 0.00096456-0.021059-0.026035 0.00919-0.054043 0.014205-0.083216 0.014205v-0.50037c0.035437 0 0.069153 0.00739 0.099705 0.020681-0.021602-0.03661-0.034169-0.079181-0.034575-0.12466-0.020846 0.00522-0.042665 0.00802-0.06513 0.00802v-0.53464c0.022886 0 0.045106 0.00288 0.066307 0.00829-0.008438-0.0233-0.014387-0.0482-0.016627-0.0742-0.015914 0.0028-0.032288 0.0043-0.048989 0.0043v-0.56891c0.01387 0 0.027512 0.001 0.04085 0.00293-0.002865-0.0105-0.005137-0.0213-0.006795-0.0323-0.011177 0.0013-0.022543 0.0019-0.034055 0.0019v-2.7554h7.3615v2.7554zm-0.2963-0.3582c-0.01076 0.00117-0.021673 0.00178-0.03274 0.00178-0.015921 0-0.031547-0.00125-0.046803-0.00363 0.0022 0.011173 0.00378 0.022567 0.00471 0.034146 0.01374-0.00204 0.027787-0.0031 0.042095-0.0031 0.00963 0 0.01915 0.0004803 0.028539 0.00142 0.0008858-0.010362 0.0023-0.020575 0.0042-0.030614zm0.022457 0.59273c-0.017862 0.00351-0.036307 0.00538-0.055197 0.00538-0.02411 0-0.047508-0.00302-0.069866-0.00867 0.00719 0.024382 0.011209 0.050126 0.011563 0.076752 0.018772-0.00418 0.038276-0.00639 0.058303-0.00639 0.015213 0 0.030114 0.00129 0.044634 0.00373 0.0006-0.0244 0.0042-0.0481 0.0106-0.0707zm0.0266 0.589c-0.0258 0.0083-0.0533 0.0128-0.0818 0.0128-0.034587 0-0.067638-0.00659-0.097976-0.018547 0.014512 0.032937 0.022583 0.069354 0.022583 0.10765 0 0.00627-0.0002283 0.012476-0.0006535 0.018638 0.023984-0.00765 0.049528-0.011783 0.076047-0.011783 0.021433 0 0.042232 0.00269 0.062087 0.00777-0.0002599-0.00484-0.0003977-0.00971-0.0003977-0.014622 0-0.036079 0.00717-0.070492 0.02013-0.1019zm0.0375 0.5788c-0.0354 0.0193-0.0761 0.0303-0.1193 0.0303-0.053508 0-0.10309-0.016815-0.14376-0.045445 0.032142 0.042087 0.051232 0.094661 0.051232 0.15168 0 0.015323-0.00137 0.030315-0.00402 0.044878 0.029421-0.013417 0.062106-0.020886 0.096543-0.020886 0.028795 0 0.056354 0.00523 0.081815 0.014787-0.00197-0.012642-0.00299-0.025587-0.00299-0.03878 0-0.050354 0.01489-0.09724 0.0405-0.1365zm0.2097 0.983c-0.04428 0-0.085689-0.012366-0.12094-0.033815 0.0051 0.018398 0.00785 0.037787 0.00785 0.057807 0 0.11922-0.096697 0.21591-0.21591 0.21591-0.11923 0-0.21591-0.096685-0.21591-0.21591 0-0.024276 0.00402-0.047634 0.011409-0.069413-0.038673 0.028539-0.08648 0.045421-0.13821 0.045421-0.04428 0-0.085665-0.012362-0.12092-0.033815 0.0051 0.018398 0.00783 0.037787 0.00783 0.057807 0 0.11922-0.096697 0.21591-0.21591 0.21591-0.11923 0-0.21591-0.096685-0.21591-0.21591 0-0.024276 0.00402-0.047634 0.011409-0.069413-0.038673 0.028539-0.08648 0.045421-0.13821 0.045421-0.044279 0-0.085665-0.012362-0.12092-0.033815 0.0051 0.018398 0.00783 0.037787 0.00783 0.057807 0 0.11922-0.096697 0.21591-0.21591 0.21591-0.11923 0-0.21591-0.096685-0.21591-0.21591 0-0.024276 0.00402-0.047634 0.011409-0.069413-0.038673 0.028539-0.08648 0.045421-0.13821 0.045421-0.04428 0-0.085665-0.012362-0.12092-0.033815 0.0051 0.018398 0.00783 0.037787 0.00783 0.057807 0 0.11922-0.096697 0.21591-0.21591 0.21591-0.11923 0-0.21591-0.096685-0.21591-0.21591 0-0.024276 0.00402-0.047634 0.011409-0.069413-0.038673 0.028539-0.08648 0.045421-0.13821 0.045421-0.04428 0-0.085665-0.012362-0.12092-0.033815 0.0051 0.018398 0.00783 0.037787 0.00783 0.057807 0 0.11922-0.096697 0.21591-0.21591 0.21591-0.11923 0-0.21591-0.096685-0.21591-0.21591 0-0.024276 0.00402-0.047634 0.011409-0.069413-0.038673 0.028539-0.08648 0.045421-0.13821 0.045421-0.04428 0-0.085665-0.012362-0.12092-0.033815 0.0051 0.018398 0.00783 0.037787 0.00783 0.057807 0 0.11922-0.096697 0.21591-0.21591 0.21591-0.11923 0-0.21591-0.096685-0.21591-0.21591 0-0.024276 0.00402-0.047634 0.011409-0.069413-0.038673 0.028539-0.08648 0.045421-0.13821 0.045421-0.04428 0-0.085665-0.012362-0.12092-0.033815 0.0051 0.018398 0.00783 0.037787 0.00783 0.057807 0 0.11922-0.096697 0.21591-0.21591 0.21591-0.11923 0-0.21591-0.096685-0.21591-0.21591 0-0.024276 0.00402-0.047634 0.011409-0.069413-0.038673 0.028539-0.08648 0.045421-0.13821 0.045421-0.04428 0-0.085665-0.012362-0.12092-0.033815 0.0051 0.018398 0.00783 0.037787 0.00783 0.057807 0 0.11922-0.096697 0.21591-0.21591 0.21591-0.11923 0-0.21591-0.096685-0.21591-0.21591 0-0.024276 0.00402-0.047634 0.011409-0.069413-0.0388 0.0286-0.0866 0.0454-0.1383 0.0454-0.04428 0-0.085665-0.012362-0.12092-0.033815 0.0051 0.018398 0.00783 0.037787 0.00783 0.057807 0 0.11922-0.096697 0.21591-0.21591 0.21591-0.11923 0-0.21591-0.096685-0.21591-0.21591 0-0.024276 0.00402-0.047634 0.011409-0.069413-0.038673 0.028539-0.08648 0.045421-0.13821 0.045421-0.04428 0-0.085665-0.012362-0.12092-0.033815 0.0051 0.018398 0.00783 0.037787 0.00783 0.057807 0 0.11922-0.096697 0.21591-0.21591 0.21591-0.11923 0-0.21591-0.096685-0.21591-0.21591 0-0.024276 0.004016-0.047634 0.011409-0.069413-0.038673 0.028539-0.08648 0.045421-0.13821 0.045421-0.04428 0-0.085665-0.012362-0.12092-0.033815 0.005102 0.018398 0.007827 0.037787 0.007827 0.057807 0 0.11922-0.096697 0.21591-0.21591 0.21591-0.11923 0-0.21591-0.096685-0.21591-0.21591 0-0.016827 0.001937-0.033217 0.0055827-0.048937-0.031543 0.015949-0.06722 0.024945-0.10497 0.024945v-0.46609c0.12868 0 0.23305 0.10437 0.23305 0.23305 0 0.021067-0.002811 0.041465-0.008051 0.060878 0.02748-0.012677 0.058059-0.019756 0.090303-0.019756 0.038681 0 0.074992 0.010177 0.1064 0.028004-0.00678-0.021846-0.010437-0.045055-0.010437-0.069126 0-0.12868 0.10436-0.23305 0.23305-0.23305 0.12868 0 0.23305 0.10437 0.23305 0.23305 0 0.028173-0.004996 0.055165-0.014161 0.080165 0.035063-0.024598 0.077752-0.039043 0.12383-0.039043 0.038681 0 0.074992 0.010177 0.1064 0.028004-0.00678-0.021846-0.010437-0.045055-0.010437-0.069126 0-0.12868 0.10436-0.23305 0.23305-0.23305 0.12868 0 0.23305 0.10437 0.23305 0.23305 0 0.028173-0.005 0.055165-0.014161 0.080165 0.035063-0.024598 0.077752-0.039043 0.12383-0.039043 0.038681 0 0.074992 0.010177 0.1064 0.028004-0.00678-0.021846-0.010437-0.045055-0.010437-0.069126 0-0.12868 0.10436-0.23305 0.23305-0.23305 0.12868 0 0.23305 0.10437 0.23305 0.23305 0 0.028173-0.005 0.055165-0.014161 0.080165 0.035063-0.024598 0.077752-0.039043 0.12383-0.039043 0.038681 0 0.074992 0.010177 0.1064 0.028004-0.00678-0.021846-0.010437-0.045055-0.010437-0.069126 0-0.12868 0.10436-0.23305 0.23305-0.23305 0.12868 0 0.23305 0.10437 0.23305 0.23305 0 0.028173-0.005 0.055165-0.014161 0.080165 0.035063-0.024598 0.077752-0.039043 0.12383-0.039043 0.038681 0 0.074992 0.010177 0.1064 0.028004-0.00678-0.021846-0.010437-0.045055-0.010437-0.069126 0-0.12868 0.10436-0.23305 0.23305-0.23305 0.12868 0 0.23305 0.10437 0.23305 0.23305 0 0.028173-0.005 0.055165-0.014161 0.080165 0.035063-0.024598 0.077752-0.039043 0.12383-0.039043 0.038681 0 0.074992 0.010177 0.1064 0.028004-0.00678-0.021846-0.010437-0.045055-0.010437-0.069126 0-0.12868 0.10436-0.23305 0.23305-0.23305 0.12868 0 0.23305 0.10437 0.23305 0.23305 0 0.028173-0.005 0.055165-0.014161 0.080165 0.035063-0.024598 0.077752-0.039043 0.12383-0.039043 0.038681 0 0.074992 0.010177 0.1064 0.028004-0.00678-0.021846-0.010437-0.045055-0.010437-0.069126 0-0.12868 0.10436-0.23305 0.23305-0.23305 0.12868 0 0.23305 0.10437 0.23305 0.23305 0 0.028173-0.005 0.055165-0.014161 0.080165 0.035063-0.024598 0.077752-0.039043 0.12383-0.039043 0.038681 0 0.074992 0.010177 0.1064 0.028004-0.00678-0.021846-0.010437-0.045055-0.010437-0.069126 0-0.12868 0.10436-0.23305 0.23305-0.23305 0.12868 0 0.23305 0.10437 0.23305 0.23305 0 0.028173-0.005 0.055165-0.014161 0.080165 0.035063-0.024598 0.077752-0.039043 0.12383-0.039043 0.038681 0 0.074992 0.010177 0.1064 0.028004-0.00678-0.021846-0.010437-0.045055-0.010437-0.069126 0-0.12868 0.10436-0.23305 0.23305-0.23305 0.12868 0 0.23305 0.10437 0.23305 0.23305 0 0.028173-0.005 0.055165-0.014161 0.080165 0.035063-0.024598 0.077752-0.039043 0.12383-0.039043 0.038681 0 0.074992 0.010177 0.1064 0.028004-0.00678-0.021846-0.010437-0.045055-0.010437-0.069126 0-0.12868 0.10436-0.23305 0.23305-0.23305 0.12868 0 0.23305 0.10437 0.23305 0.23305 0 0.028173-0.005 0.055165-0.014161 0.080165 0.035063-0.024598 0.077752-0.039043 0.12383-0.039043 0.038685 0 0.07498 0.010185 0.10639 0.028012-0.00678-0.021846-0.010425-0.045059-0.010425-0.069134 0-0.12868 0.10436-0.23305 0.23305-0.23305v0.46609zm0 0.59633c-0.11923 0-0.21591-0.096685-0.21591-0.21591s0.096681-0.21591 0.21591-0.21591v0.43182zm0 0.59633c-0.10976 0-0.19878-0.089012-0.19878-0.19878 0-0.10975 0.089012-0.19878 0.19878-0.19878v0.39755zm0 0.59633c-0.1003 0-0.18164-0.081339-0.18164-0.18164 0-0.10029 0.081335-0.18164 0.18164-0.18164v0.36328zm0 0.59633c-0.090839 0-0.1645-0.073661-0.1645-0.1645 0-0.090827 0.073665-0.1645 0.1645-0.1645v0.32901zm0 0.59633c-0.081378 0-0.14737-0.065988-0.14737-0.14737 0-0.081366 0.065988-0.14737 0.14737-0.14737v0.29474zm0 0.59633c-0.071917 0-0.13023-0.058315-0.13023-0.13023 0-0.071898 0.058315-0.13023 0.13023-0.13023v0.26046zm0 0.59633c-0.062453 0-0.11309-0.050642-0.11309-0.11309 0-0.062437 0.050642-0.1131 0.11309-0.1131v0.22619zm0 0.59633c-0.052992 0-0.095961-0.042969-0.095961-0.095961 0-0.052972 0.042968-0.095961 0.095961-0.095961v0.19192zm-7.0611-7.4843c0.004941-0.0002559 0.009917-0.0003858 0.014925-0.0003858 0.009634 0 0.019158 0.0004842 0.028543 0.00142 0.00088583-0.010362 0.002315-0.020575 0.00422-0.030614-0.01076 0.00116-0.021697 0.00178-0.032764 0.00178-0.006323 0-0.012583-0.0002204-0.018807-0.0006063 0.001732 0.00932 0.003028 0.018807 0.003882 0.028409zm-0.01605 0.632c0.010169-0.00118 0.020492-0.0018 0.030972-0.0018 0.015209 0 0.030122 0.00128 0.044638 0.00372 0.00055118-0.024484 0.004224-0.048216 0.010594-0.070799-0.017866 0.00352-0.036335 0.00539-0.055232 0.00539-0.013866 0-0.027484-0.00102-0.040823-0.00294 0.005791 0.021252 0.009177 0.0435 0.00985 0.066425zm-0.01727 0.6335c0.015614-0.00305 0.031736-0.00466 0.04824-0.00466 0.021433 0 0.04224 0.00269 0.062094 0.00776-0.00025984-0.00484-0.00040551-0.00971-0.00040551-0.014618 0-0.036079 0.007177-0.070488 0.020142-0.10189-0.025791 0.00829-0.053291 0.012787-0.081831 0.012787-0.022886 0-0.045091-0.00289-0.066291-0.00831 0.011819 0.030181 0.018311 0.063047 0.018311 0.097413 0 0.00386-0.00009843 0.00769-0.00025985 0.011516zm-0.019161 0.63585c0.021346-0.00644 0.043957-0.00991 0.067402-0.00991 0.028791 0 0.05637 0.00523 0.081831 0.014784-0.001969-0.012642-0.003004-0.025583-0.003004-0.038776 0-0.050354 0.014906-0.097236 0.040516-0.1365-0.035468 0.019295-0.076134 0.030256-0.11934 0.030256-0.035425 0-0.069126-0.00738-0.099665-0.020673 0.021953 0.037205 0.034551 0.080598 0.034551 0.12691 0 0.011504-0.00078347 0.022811-0.002287 0.033906zm-0.24789 0.9771c0.11922 0 0.21591 0.096697 0.21591 0.21591 0 0.037232-0.009425 0.072256-0.026024 0.10283 0.034213-0.027866 0.077854-0.044571 0.12541-0.044571 0.10975 0 0.19878 0.089024 0.19878 0.19878s-0.089024 0.19878-0.19878 0.19878-0.19878-0.089012-0.19878-0.19878c0-0.033138 0.008134-0.064378 0.022488-0.091858-0.03757 0.0316-0.086071 0.0507-0.13902 0.0507v-0.43182zm0 0.6306c0.10975 0 0.19878 0.089024 0.19878 0.19878s-0.089024 0.19878-0.19878 0.19878v-0.39755zm0 0.6306c0.10029 0 0.18164 0.08135 0.18164 0.18164 0 0.1003-0.081354 0.18164-0.18164 0.18164v-0.36328zm0 0.6306c0.090827 0 0.1645 0.073677 0.1645 0.1645 0 0.090842-0.073677 0.1645-0.1645 0.1645v-0.32901zm0 0.6306c0.081362 0 0.14737 0.066004 0.14737 0.14737 0 0.081378-0.066008 0.14737-0.14737 0.14737v-0.29474zm0 0.6306c0.071898 0 0.13023 0.058335 0.13023 0.13023 0 0.071917-0.058335 0.13023-0.13023 0.13023v-0.26046zm0 0.6306c0.062437 0 0.1131 0.050661 0.1131 0.1131 0 0.062453-0.050661 0.11309-0.1131 0.11309v-0.22619zm0 0.6306c0.052972 0 0.095961 0.042988 0.095961 0.095961 0 0.052992-0.042988 0.095961-0.095961 0.095961v-0.19192zm0.58911-6.9312c0.017862-0.00351 0.036307-0.00536 0.055197-0.00536 0.024114 0 0.047528 0.00301 0.06989 0.00866-0.00404-0.0138-0.00708-0.0279-0.00904-0.0423-0.019658 0.00403-0.040016 0.00615-0.060858 0.00615-0.016158 0-0.032-0.00129-0.047472-0.00374-0.001787 0.012449-0.004374 0.024642-0.007724 0.03652zm-0.02662 0.6379c0.025791-0.00829 0.053276-0.012776 0.081815-0.012776 0.034583 0 0.067646 0.00656 0.097984 0.018528-0.01233-0.028-0.02001-0.0585-0.02204-0.0905-0.024177 0.00669-0.04965 0.01028-0.075949 0.01028-0.021465 0-0.042358-0.0024-0.062461-0.00691-0.002177 0.028618-0.00887 0.05598-0.019354 0.081374zm-0.03751 0.6481c0.035468-0.019291 0.076118-0.030244 0.11933-0.030244 0.053512 0 0.10311 0.016807 0.14379 0.045437-0.03215-0.0421-0.05127-0.0947-0.05127-0.1517 0-0.00208 0.00002756-0.00415 0.00007874-0.00622-0.028854 0.010661-0.060055 0.0165-0.09261 0.0165-0.027445 0-0.053917-0.00415-0.078842-0.011839l0.00001969 0.00156c0 0.050358-0.014894 0.097228-0.040504 0.13649zm-0.20968 2.1357c0.10029 0 0.18164 0.08135 0.18164 0.18164 0 0.1003-0.081354 0.18164-0.18164 0.18164-0.1003 0-0.18164-0.081339-0.18164-0.18164 0-0.10029 0.081335-0.18164 0.18164-0.18164zm0 0.6306c0.090827 0 0.1645 0.073677 0.1645 0.1645 0 0.090842-0.073677 0.1645-0.1645 0.1645-0.090839 0-0.1645-0.073661-0.1645-0.1645 0-0.090827 0.073665-0.1645 0.1645-0.1645zm0 0.6306c0.081362 0 0.14737 0.066004 0.14737 0.14737 0 0.081378-0.066008 0.14737-0.14737 0.14737-0.081378 0-0.14737-0.065988-0.14737-0.14737 0-0.081366 0.065988-0.14737 0.14737-0.14737zm0 0.6306c0.071898 0 0.13023 0.058335 0.13023 0.13023 0 0.071917-0.058335 0.13023-0.13023 0.13023-0.071917 0-0.13023-0.058315-0.13023-0.13023 0-0.071898 0.058315-0.13023 0.13023-0.13023zm0 0.6306c0.062437 0 0.1131 0.050661 0.1131 0.1131 0 0.062453-0.050661 0.11309-0.1131 0.11309-0.062453 0-0.11309-0.050642-0.11309-0.11309 0-0.062437 0.050642-0.1131 0.11309-0.1131zm0 0.6306c0.052972 0 0.095961 0.042988 0.095961 0.095961 0 0.052992-0.042988 0.095961-0.095961 0.095961-0.052992 0-0.095961-0.042968-0.095961-0.095961 0-0.052972 0.042968-0.095961 0.095961-0.095961zm0.37516-7.2072 0.00066142 0.0001102-0.00003544-0.0001968-0.00062598 0.0000866zm0.25447 0.27377c0.01374-0.00204 0.027787-0.0031 0.042094-0.0031 0.009634 0 0.019158 0.0004843 0.028543 0.00142 0.0008858-0.010362 0.00231-0.020575 0.00422-0.030614-0.01076 0.00116-0.021697 0.00178-0.032764 0.00178-0.015921 0-0.031547-0.00125-0.046803-0.00363 0.002193 0.011177 0.003783 0.022567 0.004709 0.034146zm-0.016209 0.63389c0.018772-0.00418 0.038276-0.00639 0.058303-0.00639 0.015209 0 0.030122 0.00128 0.044638 0.00372 0.0005512-0.024484 0.00422-0.048217 0.010595-0.070799-0.017866 0.00352-0.036335 0.00539-0.055232 0.00539-0.02411 0-0.047508-0.00302-0.069866-0.00867 0.007193 0.024382 0.011209 0.050126 0.011563 0.076752zm-0.01775 0.6359c0.02398-0.0076 0.04953-0.0118 0.07604-0.0118 0.021433 0 0.04224 0.00269 0.062094 0.00776-0.0002598-0.00484-0.0004055-0.00971-0.0004055-0.014618 0-0.036079 0.00718-0.070488 0.020142-0.10189-0.025791 0.00829-0.053291 0.012787-0.081831 0.012787-0.034587 0-0.067638-0.00659-0.097976-0.018547 0.014512 0.032937 0.022583 0.069354 0.022583 0.10765 0 0.00627-0.00022835 0.012476-0.00065355 0.018638zm-0.0205 0.6397c0.02942-0.0134 0.06211-0.0209 0.09654-0.0209 0.028791 0 0.05637 0.00523 0.081831 0.014784-0.00197-0.012642-0.003-0.025583-0.003-0.038776 0-0.050354 0.014906-0.097236 0.040516-0.1365-0.035468 0.019295-0.076134 0.030256-0.11934 0.030256-0.053508 0-0.10309-0.016815-0.14376-0.045445 0.032142 0.042087 0.051232 0.094661 0.051232 0.15168 0 0.015323-0.001374 0.030315-0.004016 0.044878zm-0.24617 0.96613c0.11922 0 0.21591 0.096697 0.21591 0.21591 0 0.11922-0.096697 0.21591-0.21591 0.21591-0.11923 0-0.21591-0.096685-0.21591-0.21591s0.096681-0.21591 0.21591-0.21591zm0 0.6306c0.10975 0 0.19878 0.089024 0.19878 0.19878s-0.089024 0.19878-0.19878 0.19878-0.19878-0.089012-0.19878-0.19878c0-0.10975 0.089012-0.19878 0.19878-0.19878zm0 0.6306c0.10029 0 0.18164 0.08135 0.18164 0.18164 0 0.1003-0.081354 0.18164-0.18164 0.18164-0.1003 0-0.18164-0.081339-0.18164-0.18164 0-0.10029 0.081335-0.18164 0.18164-0.18164zm0 0.6306c0.090827 0 0.1645 0.073677 0.1645 0.1645 0 0.090842-0.073677 0.1645-0.1645 0.1645-0.090839 0-0.1645-0.073661-0.1645-0.1645 0-0.090827 0.073665-0.1645 0.1645-0.1645zm0 0.6306c0.081362 0 0.14737 0.066004 0.14737 0.14737 0 0.081378-0.066008 0.14737-0.14737 0.14737-0.081378 0-0.14737-0.065988-0.14737-0.14737 0-0.081366 0.065988-0.14737 0.14737-0.14737zm0 0.6306c0.071898 0 0.13023 0.058335 0.13023 0.13023 0 0.071917-0.058335 0.13023-0.13023 0.13023-0.071917 0-0.13023-0.058315-0.13023-0.13023 0-0.071898 0.058315-0.13023 0.13023-0.13023zm0 0.6306c0.062437 0 0.1131 0.050661 0.1131 0.1131 0 0.062453-0.050661 0.11309-0.1131 0.11309-0.062453 0-0.11309-0.050642-0.11309-0.11309 0-0.062437 0.050642-0.1131 0.11309-0.1131zm0 0.6306c0.052972 0 0.095961 0.042988 0.095961 0.095961 0 0.052992-0.042988 0.095961-0.095961 0.095961-0.052992 0-0.095961-0.042969-0.095961-0.095961 0-0.052972 0.042968-0.095961 0.095961-0.095961zm0.61652-6.9312c0.017862-0.00351 0.036307-0.00536 0.055197-0.00536 0.024114 0 0.047528 0.00301 0.06989 0.00866-0.00404-0.013673-0.00707-0.02778-0.00903-0.04222-0.019657 0.00403-0.040016 0.00615-0.060858 0.00615-0.016158 0-0.032-0.00129-0.047472-0.00374-0.00179 0.012449-0.00437 0.024642-0.00772 0.03652zm-0.026618 0.63801c0.025791-0.00829 0.053276-0.012776 0.081815-0.012776 0.034583 0 0.067646 0.00656 0.097984 0.018528-0.012327-0.02798-0.020004-0.058476-0.022035-0.090496-0.024177 0.00669-0.04965 0.01028-0.075949 0.01028-0.021465 0-0.042358-0.0024-0.062461-0.00691-0.00218 0.028618-0.00887 0.05598-0.019354 0.081374zm-0.037512 0.64807c0.035468-0.019291 0.076118-0.030244 0.11933-0.030244 0.053512 0 0.10311 0.016807 0.14379 0.045437-0.032146-0.042087-0.05126-0.094646-0.05126-0.15168 0-0.00208 0.0000276-0.00415 0.0000787-0.00622-0.028854 0.010661-0.060055 0.0165-0.09261 0.0165-0.027445 0-0.053917-0.00415-0.078842-0.011839l0.0000197 0.00156c0 0.050358-0.014894 0.097228-0.040504 0.13649zm-0.20968 1.5051c0.10975 0 0.19878 0.089024 0.19878 0.19878s-0.089024 0.19878-0.19878 0.19878-0.19878-0.089012-0.19878-0.19878c0-0.10975 0.089012-0.19878 0.19878-0.19878zm0 0.6306c0.10029 0 0.18164 0.08135 0.18164 0.18164 0 0.1003-0.081354 0.18164-0.18164 0.18164-0.1003 0-0.18164-0.081339-0.18164-0.18164 0-0.10029 0.081335-0.18164 0.18164-0.18164zm0 0.6306c0.090827 0 0.1645 0.073677 0.1645 0.1645 0 0.090842-0.073677 0.1645-0.1645 0.1645-0.090839 0-0.1645-0.073661-0.1645-0.1645 0-0.090827 0.073665-0.1645 0.1645-0.1645zm0 0.6306c0.081362 0 0.14737 0.066004 0.14737 0.14737 0 0.081378-0.066008 0.14737-0.14737 0.14737-0.081378 0-0.14737-0.065988-0.14737-0.14737 0-0.081366 0.065988-0.14737 0.14737-0.14737zm0 0.6306c0.071898 0 0.13023 0.058335 0.13023 0.13023 0 0.071917-0.058335 0.13023-0.13023 0.13023-0.071917 0-0.13023-0.058315-0.13023-0.13023 0-0.071898 0.058315-0.13023 0.13023-0.13023zm0 0.6306c0.062437 0 0.1131 0.050661 0.1131 0.1131 0 0.062453-0.050661 0.11309-0.1131 0.11309-0.062453 0-0.11309-0.050642-0.11309-0.11309 0-0.062437 0.050642-0.1131 0.11309-0.1131zm0 0.6306c0.052972 0 0.095961 0.042988 0.095961 0.095961 0 0.052992-0.042988 0.095961-0.095961 0.095961-0.052992 0-0.095961-0.042969-0.095961-0.095961 0-0.052972 0.042968-0.095961 0.095961-0.095961zm0.37516-7.2072 0.0006614 0.0001102-0.0000354-0.0001968-0.000626 0.0000866zm0.25447 0.27377c0.01374-0.00204 0.027787-0.0031 0.042095-0.0031 0.00963 0 0.019157 0.0004843 0.028543 0.00142 0.0008858-0.010362 0.00232-0.020575 0.00422-0.030614-0.01076 0.00116-0.021697 0.00178-0.032764 0.00178-0.015921 0-0.031547-0.00125-0.046803-0.00363 0.00219 0.011177 0.00378 0.022567 0.00471 0.034146zm-0.016209 0.63389c0.018772-0.00418 0.038276-0.00639 0.058303-0.00639 0.015209 0 0.030122 0.00128 0.044638 0.00372 0.0005512-0.024484 0.00422-0.048216 0.010594-0.070799-0.017866 0.00352-0.036335 0.00539-0.055232 0.00539-0.02411 0-0.047508-0.00302-0.069866-0.00867 0.00719 0.024382 0.011209 0.050126 0.011563 0.076752zm-0.017744 0.63599c0.023984-0.00765 0.049528-0.011783 0.076047-0.011783 0.021433 0 0.04224 0.00269 0.062094 0.00776-0.0002598-0.00484-0.0004055-0.00971-0.0004055-0.014618 0-0.036079 0.00718-0.070488 0.020142-0.10189-0.025791 0.00829-0.053291 0.012787-0.081831 0.012787-0.034587 0-0.067638-0.00659-0.097976-0.018547 0.014512 0.032937 0.022583 0.069354 0.022583 0.10765 0 0.00627-0.0002284 0.012476-0.0006536 0.018638zm-0.020496 0.6397c0.029421-0.013417 0.062106-0.020886 0.096543-0.020886 0.028791 0 0.05637 0.00523 0.081831 0.014784-0.00197-0.012642-0.003-0.025583-0.003-0.038776 0-0.050354 0.014906-0.097236 0.040516-0.1365-0.035468 0.019295-0.076134 0.030256-0.11934 0.030256-0.053508 0-0.10309-0.016815-0.14376-0.045445 0.032142 0.042087 0.051232 0.094661 0.051232 0.15168 0 0.015323-0.00137 0.030315-0.00402 0.044878zm-0.24617 0.96613c0.11922 0 0.21591 0.096697 0.21591 0.21591 0 0.11922-0.096697 0.21591-0.21591 0.21591-0.11923 0-0.21591-0.096685-0.21591-0.21591s0.096681-0.21591 0.21591-0.21591zm0 0.6306c0.10975 0 0.19878 0.089024 0.19878 0.19878s-0.089024 0.19878-0.19878 0.19878-0.19878-0.089012-0.19878-0.19878c0-0.10975 0.089012-0.19878 0.19878-0.19878zm0 0.6306c0.10029 0 0.18164 0.08135 0.18164 0.18164 0 0.1003-0.081354 0.18164-0.18164 0.18164-0.1003 0-0.18164-0.081339-0.18164-0.18164 0-0.10029 0.081335-0.18164 0.18164-0.18164zm0 0.6306c0.090827 0 0.1645 0.073677 0.1645 0.1645 0 0.090842-0.073677 0.1645-0.1645 0.1645-0.090839 0-0.1645-0.073661-0.1645-0.1645 0-0.090827 0.073665-0.1645 0.1645-0.1645zm0 0.6306c0.081362 0 0.14737 0.066004 0.14737 0.14737 0 0.081378-0.066008 0.14737-0.14737 0.14737-0.081378 0-0.14737-0.065988-0.14737-0.14737 0-0.081366 0.065988-0.14737 0.14737-0.14737zm0 0.6306c0.071898 0 0.13023 0.058335 0.13023 0.13023 0 0.071917-0.058335 0.13023-0.13023 0.13023-0.071917 0-0.13023-0.058315-0.13023-0.13023 0-0.071898 0.058315-0.13023 0.13023-0.13023zm0 0.6306c0.062437 0 0.1131 0.050661 0.1131 0.1131 0 0.062453-0.050661 0.11309-0.1131 0.11309-0.062453 0-0.11309-0.050642-0.11309-0.11309 0-0.062437 0.050642-0.1131 0.11309-0.1131zm0 0.6306c0.052972 0 0.095961 0.042988 0.095961 0.095961 0 0.052992-0.042988 0.095961-0.095961 0.095961-0.052992 0-0.095961-0.042969-0.095961-0.095961 0-0.052972 0.042968-0.095961 0.095961-0.095961zm0.61652-6.9312c0.017862-0.00351 0.036307-0.00536 0.055197-0.00536 0.024114 0 0.047528 0.00301 0.06989 0.00866-0.00404-0.013673-0.00707-0.027779-0.00903-0.04222-0.019658 0.00403-0.040016 0.00615-0.060858 0.00615-0.016158 0-0.032-0.00129-0.047472-0.00374-0.00179 0.012449-0.00437 0.024642-0.00772 0.03652zm-0.026618 0.63801c0.025791-0.00829 0.053276-0.012776 0.081815-0.012776 0.034583 0 0.067646 0.00656 0.097984 0.018528-0.012327-0.02798-0.020004-0.058476-0.022035-0.090496-0.024177 0.00669-0.04965 0.010279-0.075949 0.010279-0.021465 0-0.042358-0.0024-0.062461-0.00691-0.00218 0.028618-0.00887 0.05598-0.019354 0.081374zm-0.037512 0.64807c0.035468-0.019291 0.076118-0.030244 0.11933-0.030244 0.053512 0 0.10311 0.016807 0.14379 0.045437-0.032146-0.042087-0.05126-0.094646-0.05126-0.15168 0-0.00208 0.0000276-0.00415 0.0000787-0.00622-0.028854 0.010661-0.060055 0.0165-0.09261 0.0165-0.027445 0-0.053917-0.00415-0.078842-0.011839l0.0000197 0.00156c0 0.050358-0.014894 0.097228-0.040504 0.13649zm-0.20968 1.5051c0.10975 0 0.19878 0.089024 0.19878 0.19878s-0.089024 0.19878-0.19878 0.19878-0.19878-0.089012-0.19878-0.19878c0-0.10975 0.089012-0.19878 0.19878-0.19878zm0 0.6306c0.10029 0 0.18164 0.08135 0.18164 0.18164 0 0.1003-0.081354 0.18164-0.18164 0.18164-0.1003 0-0.18164-0.081339-0.18164-0.18164 0-0.10029 0.081335-0.18164 0.18164-0.18164zm0 0.6306c0.090827 0 0.1645 0.073677 0.1645 0.1645 0 0.090843-0.073677 0.1645-0.1645 0.1645-0.090839 0-0.1645-0.073661-0.1645-0.1645 0-0.090827 0.073665-0.1645 0.1645-0.1645zm0 0.6306c0.081362 0 0.14737 0.066004 0.14737 0.14737 0 0.081378-0.066008 0.14737-0.14737 0.14737-0.081378 0-0.14737-0.065988-0.14737-0.14737 0-0.081366 0.065988-0.14737 0.14737-0.14737zm0 0.6306c0.071898 0 0.13023 0.058335 0.13023 0.13023 0 0.071917-0.058335 0.13023-0.13023 0.13023-0.071917 0-0.13023-0.058315-0.13023-0.13023 0-0.071898 0.058315-0.13023 0.13023-0.13023zm0 0.6306c0.062437 0 0.1131 0.050661 0.1131 0.1131 0 0.062453-0.050661 0.11309-0.1131 0.11309-0.062453 0-0.11309-0.050642-0.11309-0.11309 0-0.062437 0.050642-0.1131 0.11309-0.1131zm0 0.6306c0.052972 0 0.095961 0.042988 0.095961 0.095961 0 0.052992-0.042988 0.095961-0.095961 0.095961-0.052992 0-0.095961-0.042969-0.095961-0.095961 0-0.052972 0.042968-0.095961 0.095961-0.095961zm0.37516-7.2072 0.0006614 0.0001102-0.0000354-0.0001968-0.000626 0.0000866zm0.25447 0.27377c0.01374-0.00204 0.027787-0.0031 0.042095-0.0031 0.00963 0 0.019157 0.0004843 0.028543 0.00142 0.0008858-0.010362 0.00232-0.020575 0.00422-0.030614-0.01076 0.00116-0.021697 0.00178-0.032764 0.00178-0.015921 0-0.031547-0.00125-0.046803-0.00363 0.00219 0.011177 0.00378 0.022567 0.00471 0.034146zm-0.016209 0.63389c0.018772-0.00418 0.038276-0.00639 0.058303-0.00639 0.015209 0 0.030122 0.00128 0.044638 0.00372 0.0005512-0.024484 0.00422-0.048217 0.010594-0.070799-0.017866 0.00352-0.036335 0.00539-0.055232 0.00539-0.02411 0-0.047508-0.00302-0.069866-0.00867 0.00719 0.024382 0.011209 0.050126 0.011563 0.076752zm-0.0179 0.6358c0.023984-0.00765 0.049528-0.011783 0.076047-0.011783 0.021433 0 0.04224 0.00269 0.062094 0.00776-0.0002598-0.00484-0.0004055-0.00971-0.0004055-0.014618 0-0.036079 0.00718-0.070488 0.020142-0.10189-0.025791 0.00829-0.053291 0.012787-0.081831 0.012787-0.034587 0-0.067638-0.00659-0.097976-0.018547 0.014512 0.032937 0.022583 0.069354 0.022583 0.10765 0 0.00627-0.0002284 0.012476-0.0006536 0.018638zm-0.0205 0.6397c0.0294-0.0134 0.0621-0.0209 0.0966-0.0209 0.028791 0 0.05637 0.00523 0.081831 0.014784-0.00197-0.012642-0.003-0.025583-0.003-0.038776 0-0.050354 0.014906-0.097236 0.040516-0.1365-0.035468 0.019295-0.076134 0.030256-0.11934 0.030256-0.053508 0-0.10309-0.016815-0.14376-0.045445 0.032142 0.042087 0.051232 0.094661 0.051232 0.15168 0 0.015323-0.00137 0.030315-0.00402 0.044878zm-0.2462 0.9661c0.11922 0 0.21591 0.096697 0.21591 0.21591 0 0.11922-0.096697 0.21591-0.21591 0.21591-0.11923 0-0.21591-0.096685-0.21591-0.21591s0.096681-0.21591 0.21591-0.21591zm0 0.6306c0.10975 0 0.19878 0.089024 0.19878 0.19878s-0.089024 0.19878-0.19878 0.19878-0.19878-0.089012-0.19878-0.19878c0-0.10975 0.089012-0.19878 0.19878-0.19878zm0 0.6306c0.10029 0 0.18164 0.08135 0.18164 0.18164 0 0.1003-0.081354 0.18164-0.18164 0.18164-0.1003 0-0.18164-0.081339-0.18164-0.18164 0-0.10029 0.081335-0.18164 0.18164-0.18164zm0 0.6306c0.090827 0 0.1645 0.073677 0.1645 0.1645 0 0.090842-0.073677 0.1645-0.1645 0.1645-0.090839 0-0.1645-0.073661-0.1645-0.1645 0-0.090827 0.073665-0.1645 0.1645-0.1645zm0 0.6306c0.081362 0 0.14737 0.066004 0.14737 0.14737 0 0.081378-0.066008 0.14737-0.14737 0.14737-0.081378 0-0.14737-0.065988-0.14737-0.14737 0-0.081366 0.065988-0.14737 0.14737-0.14737zm0 0.6306c0.071898 0 0.13023 0.058335 0.13023 0.13023 0 0.071917-0.058335 0.13023-0.13023 0.13023-0.071917 0-0.13023-0.058315-0.13023-0.13023 0-0.071898 0.058315-0.13023 0.13023-0.13023zm0 0.6306c0.062437 0 0.1131 0.050661 0.1131 0.1131 0 0.062453-0.050661 0.11309-0.1131 0.11309-0.062453 0-0.11309-0.050642-0.11309-0.11309 0-0.062437 0.050642-0.1131 0.11309-0.1131zm0 0.6306c0.052972 0 0.095961 0.042988 0.095961 0.095961 0 0.052992-0.042988 0.095961-0.095961 0.095961-0.052992 0-0.095961-0.042968-0.095961-0.095961 0-0.052972 0.042968-0.095961 0.095961-0.095961zm0.61652-6.9312c0.017862-0.00351 0.036307-0.00536 0.055197-0.00536 0.024114 0 0.047528 0.00301 0.06989 0.00866-0.00404-0.013673-0.00707-0.02778-0.00903-0.04222-0.019658 0.00403-0.040016 0.00615-0.060858 0.00615-0.016157 0-0.032-0.00129-0.047472-0.00374-0.00179 0.012449-0.00437 0.024642-0.00772 0.03652zm-0.0265 0.638c0.025791-0.00829 0.053276-0.012776 0.081815-0.012776 0.034583 0 0.067646 0.00656 0.097984 0.018528-0.0124-0.028-0.0201-0.0585-0.0221-0.0905-0.024177 0.00669-0.04965 0.01028-0.075949 0.01028-0.021465 0-0.042358-0.0024-0.062461-0.00691-0.00218 0.028618-0.00887 0.05598-0.019354 0.081374zm-0.0376 0.6481c0.0355-0.0193 0.0762-0.0303 0.1194-0.0303 0.053512 0 0.10311 0.016807 0.14379 0.045437-0.0322-0.042-0.0513-0.0946-0.0513-0.1516 0-0.00208 0.0000276-0.00415 0.0000787-0.00622-0.028854 0.010661-0.060055 0.0165-0.09261 0.0165-0.027445 0-0.053917-0.00415-0.078843-0.011839l0.0000197 0.00156c0 0.050358-0.014894 0.097228-0.040504 0.13649zm-0.20968 1.5051c0.10975 0 0.19878 0.089024 0.19878 0.19878s-0.089024 0.19878-0.19878 0.19878-0.19878-0.089012-0.19878-0.19878c0-0.10975 0.089012-0.19878 0.19878-0.19878zm0 0.6306c0.10029 0 0.18164 0.08135 0.18164 0.18164 0 0.1003-0.081354 0.18164-0.18164 0.18164-0.1003 0-0.18164-0.081339-0.18164-0.18164 0-0.10029 0.081335-0.18164 0.18164-0.18164zm0 0.6306c0.090827 0 0.1645 0.073677 0.1645 0.1645 0 0.090842-0.073677 0.1645-0.1645 0.1645-0.090839 0-0.1645-0.073661-0.1645-0.1645 0-0.090827 0.073665-0.1645 0.1645-0.1645zm0 0.6306c0.081362 0 0.14737 0.066004 0.14737 0.14737 0 0.081378-0.066008 0.14737-0.14737 0.14737-0.081378 0-0.14737-0.065988-0.14737-0.14737 0-0.081366 0.065988-0.14737 0.14737-0.14737zm0 0.6306c0.071898 0 0.13023 0.058335 0.13023 0.13023 0 0.071917-0.058335 0.13023-0.13023 0.13023-0.071917 0-0.13023-0.058315-0.13023-0.13023 0-0.071898 0.058315-0.13023 0.13023-0.13023zm0 0.6306c0.062437 0 0.1131 0.050661 0.1131 0.1131 0 0.062453-0.050661 0.11309-0.1131 0.11309-0.062453 0-0.11309-0.050642-0.11309-0.11309 0-0.062437 0.050642-0.1131 0.11309-0.1131zm0 0.6306c0.052972 0 0.095961 0.042988 0.095961 0.095961 0 0.052992-0.042988 0.095961-0.095961 0.095961-0.052992 0-0.095961-0.042968-0.095961-0.095961 0-0.052972 0.042969-0.095961 0.095961-0.095961zm0.37516-7.2072 0.0006614 0.0001102-0.0000354-0.0001968-0.000626 0.0000866zm0.25447 0.27377c0.01374-0.00204 0.027787-0.0031 0.042094-0.0031 0.00963 0 0.019157 0.0004843 0.028543 0.00142 0.0008858-0.010362 0.00232-0.020575 0.00422-0.030614-0.01076 0.00116-0.021697 0.00178-0.032764 0.00178-0.015921 0-0.031547-0.00125-0.046803-0.00363 0.00219 0.011177 0.00378 0.022567 0.00471 0.034146zm-0.016209 0.63389c0.018772-0.00418 0.038276-0.00639 0.058303-0.00639 0.015209 0 0.030122 0.00128 0.044638 0.00372 0.0005512-0.024484 0.00422-0.048216 0.010595-0.070799-0.017866 0.00352-0.036335 0.00539-0.055232 0.00539-0.02411 0-0.047508-0.00302-0.069866-0.00867 0.00719 0.024382 0.011209 0.050126 0.011563 0.076752zm-0.0178 0.6359c0.023984-0.00765 0.049528-0.011783 0.076047-0.011783 0.021433 0 0.04224 0.00269 0.062095 0.00776-0.0002598-0.00484-0.0004055-0.00971-0.0004055-0.014618 0-0.036079 0.00718-0.070488 0.020142-0.10189-0.025791 0.00829-0.053291 0.012787-0.081831 0.012787-0.034587 0-0.067638-0.00659-0.097976-0.018547 0.014512 0.032937 0.022583 0.069354 0.022583 0.10765 0 0.00627-0.0002284 0.012476-0.0006536 0.018638zm-0.0205 0.6397c0.0295-0.0134 0.0621-0.0209 0.0966-0.0209 0.028791 0 0.05637 0.00523 0.081831 0.014784-0.00197-0.012642-0.003-0.025583-0.003-0.038776 0-0.050354 0.014906-0.097236 0.040516-0.1365-0.035469 0.019295-0.076134 0.030256-0.11934 0.030256-0.053508 0-0.10309-0.016815-0.14376-0.045445 0.032142 0.042087 0.051232 0.094661 0.051232 0.15168 0 0.015323-0.00137 0.030315-0.00402 0.044878zm-0.2461 0.9661c0.11922 0 0.21591 0.096697 0.21591 0.21591 0 0.11922-0.096697 0.21591-0.21591 0.21591-0.11923 0-0.21591-0.096685-0.21591-0.21591s0.096681-0.21591 0.21591-0.21591zm0 0.6306c0.10975 0 0.19878 0.089024 0.19878 0.19878s-0.089024 0.19878-0.19878 0.19878-0.19878-0.089012-0.19878-0.19878c0-0.10975 0.089012-0.19878 0.19878-0.19878zm0 0.6306c0.10029 0 0.18164 0.08135 0.18164 0.18164 0 0.1003-0.081354 0.18164-0.18164 0.18164-0.1003 0-0.18164-0.081339-0.18164-0.18164 0-0.10029 0.081335-0.18164 0.18164-0.18164zm0 0.6306c0.090827 0 0.1645 0.073677 0.1645 0.1645 0 0.090842-0.073677 0.1645-0.1645 0.1645-0.090839 0-0.1645-0.073661-0.1645-0.1645 0-0.090827 0.073665-0.1645 0.1645-0.1645zm0 0.6306c0.081362 0 0.14737 0.066004 0.14737 0.14737 0 0.081378-0.066008 0.14737-0.14737 0.14737-0.081378 0-0.14737-0.065988-0.14737-0.14737 0-0.081366 0.065988-0.14737 0.14737-0.14737zm0 0.6306c0.071898 0 0.13023 0.058335 0.13023 0.13023 0 0.071917-0.058335 0.13023-0.13023 0.13023-0.071917 0-0.13023-0.058315-0.13023-0.13023 0-0.071898 0.058315-0.13023 0.13023-0.13023zm0 0.6306c0.062437 0 0.1131 0.050661 0.1131 0.1131 0 0.062453-0.050661 0.11309-0.1131 0.11309-0.062453 0-0.11309-0.050642-0.11309-0.11309 0-0.062437 0.050642-0.1131 0.11309-0.1131zm0 0.6306c0.052972 0 0.095961 0.042988 0.095961 0.095961 0 0.052992-0.042988 0.095961-0.095961 0.095961-0.052992 0-0.095961-0.042969-0.095961-0.095961 0-0.052972 0.042968-0.095961 0.095961-0.095961zm0.6165-6.9312c0.017862-0.00351 0.036307-0.00536 0.055197-0.00536 0.024114 0 0.047528 0.00301 0.06989 0.00866-0.00404-0.013673-0.00707-0.027779-0.00903-0.04222-0.019658 0.00403-0.040016 0.00615-0.060858 0.00615-0.016157 0-0.032-0.00129-0.047472-0.00374-0.00179 0.012449-0.00437 0.024642-0.00772 0.03652zm-0.0266 0.638c0.025791-0.00829 0.053276-0.012776 0.081815-0.012776 0.034583 0 0.067646 0.00656 0.097984 0.018528-0.0124-0.028-0.02-0.0585-0.0221-0.0905-0.0241 0.0066-0.0496 0.0102-0.0759 0.0102-0.021465 0-0.042358-0.0024-0.062461-0.00691-0.00218 0.028618-0.00887 0.05598-0.019354 0.081374zm-0.0375 0.6481c0.035469-0.019291 0.076118-0.030244 0.11933-0.030244 0.053512 0 0.10311 0.016807 0.14379 0.045437-0.032146-0.042087-0.05126-0.094646-0.05126-0.15168 0-0.00208 0.0000276-0.00415 0.0000787-0.00622-0.028854 0.010661-0.060055 0.0165-0.09261 0.0165-0.027445 0-0.053917-0.00415-0.078842-0.011839l0.0000197 0.00156c0 0.050358-0.014894 0.097228-0.040504 0.13649zm-0.20968 1.5051c0.10975 0 0.19878 0.089024 0.19878 0.19878s-0.089024 0.19878-0.19878 0.19878-0.19878-0.089012-0.19878-0.19878c0-0.10975 0.089012-0.19878 0.19878-0.19878zm0 0.6306c0.10029 0 0.18164 0.08135 0.18164 0.18164 0 0.1003-0.081354 0.18164-0.18164 0.18164-0.1003 0-0.18164-0.081339-0.18164-0.18164 0-0.10029 0.081335-0.18164 0.18164-0.18164zm0 0.6306c0.090827 0 0.1645 0.073677 0.1645 0.1645 0 0.090842-0.073677 0.1645-0.1645 0.1645-0.090839 0-0.1645-0.073661-0.1645-0.1645 0-0.090827 0.073665-0.1645 0.1645-0.1645zm0 0.6306c0.081362 0 0.14737 0.066004 0.14737 0.14737 0 0.081378-0.066008 0.14737-0.14737 0.14737-0.081378 0-0.14737-0.065988-0.14737-0.14737 0-0.081366 0.065988-0.14737 0.14737-0.14737zm0 0.6306c0.071898 0 0.13023 0.058335 0.13023 0.13023 0 0.071917-0.058335 0.13023-0.13023 0.13023-0.071917 0-0.13023-0.058315-0.13023-0.13023 0-0.071898 0.058315-0.13023 0.13023-0.13023zm0 0.6306c0.062437 0 0.1131 0.050661 0.1131 0.1131 0 0.062453-0.050661 0.11309-0.1131 0.11309-0.062453 0-0.11309-0.050642-0.11309-0.11309 0-0.062437 0.050642-0.1131 0.11309-0.1131zm0 0.6306c0.052972 0 0.095961 0.042988 0.095961 0.095961 0 0.052992-0.042988 0.095961-0.095961 0.095961-0.052992 0-0.095961-0.042969-0.095961-0.095961 0-0.052972 0.042969-0.095961 0.095961-0.095961zm0.37516-7.2072 0.0006614 0.0001102-0.0000354-0.0001968-0.000626 0.0000866zm0.2544 0.2737c0.01374-0.00204 0.027787-0.0031 0.042095-0.0031 0.00963 0 0.019157 0.0004843 0.028543 0.00142 0.0008858-0.010362 0.00231-0.020575 0.00422-0.030614-0.01076 0.00116-0.021697 0.00178-0.032764 0.00178-0.015921 0-0.031547-0.00125-0.046803-0.00363 0.00219 0.011177 0.00378 0.022567 0.00471 0.034146zm-0.0162 0.6339c0.0188-0.0042 0.0383-0.0064 0.0583-0.0064 0.015209 0 0.030122 0.00128 0.044638 0.00372 0.0005512-0.024484 0.00422-0.048217 0.010594-0.070799-0.017866 0.00352-0.036335 0.00539-0.055232 0.00539-0.02411 0-0.047508-0.00302-0.069866-0.00867 0.00719 0.024382 0.011209 0.050126 0.011563 0.076752zm-0.017744 0.63599c0.023984-0.00765 0.049528-0.011783 0.076047-0.011783 0.021433 0 0.04224 0.00269 0.062095 0.00776-0.0002598-0.00484-0.0004055-0.00971-0.0004055-0.014618 0-0.036079 0.00718-0.070488 0.020142-0.10189-0.025791 0.00829-0.053291 0.012787-0.081831 0.012787-0.034587 0-0.067638-0.00659-0.097976-0.018547 0.014512 0.032937 0.022583 0.069354 0.022583 0.10765 0 0.00627-0.0002284 0.012476-0.0006536 0.018638zm-0.020496 0.6397c0.029421-0.013417 0.062106-0.020886 0.096543-0.020886 0.028791 0 0.05637 0.00523 0.081831 0.014784-0.00197-0.012642-0.003-0.025583-0.003-0.038776 0-0.050354 0.014906-0.097236 0.040516-0.1365-0.035468 0.019295-0.076134 0.030256-0.11934 0.030256-0.053508 0-0.10309-0.016815-0.14376-0.045445 0.032142 0.042087 0.051232 0.094661 0.051232 0.15168 0 0.015323-0.00137 0.030315-0.00402 0.044878zm-0.24617 0.96613c0.11922 0 0.21591 0.096697 0.21591 0.21591 0 0.11922-0.096697 0.21591-0.21591 0.21591-0.11923 0-0.21591-0.096685-0.21591-0.21591s0.096681-0.21591 0.21591-0.21591zm0 0.6306c0.10975 0 0.19878 0.089024 0.19878 0.19878s-0.089024 0.19878-0.19878 0.19878-0.19878-0.089012-0.19878-0.19878c0-0.10975 0.089012-0.19878 0.19878-0.19878zm0 0.6306c0.10029 0 0.18164 0.08135 0.18164 0.18164 0 0.1003-0.081354 0.18164-0.18164 0.18164-0.1003 0-0.18164-0.081339-0.18164-0.18164 0-0.10029 0.081335-0.18164 0.18164-0.18164zm0 0.6306c0.090827 0 0.1645 0.073677 0.1645 0.1645 0 0.090842-0.073677 0.1645-0.1645 0.1645-0.090839 0-0.1645-0.073661-0.1645-0.1645 0-0.090827 0.073665-0.1645 0.1645-0.1645zm0 0.6306c0.081362 0 0.14737 0.066004 0.14737 0.14737 0 0.081378-0.066008 0.14737-0.14737 0.14737-0.081378 0-0.14737-0.065988-0.14737-0.14737 0-0.081366 0.065988-0.14737 0.14737-0.14737zm0 0.6306c0.071898 0 0.13023 0.058335 0.13023 0.13023 0 0.071917-0.058335 0.13023-0.13023 0.13023-0.071917 0-0.13023-0.058315-0.13023-0.13023 0-0.071898 0.058315-0.13023 0.13023-0.13023zm0 0.6306c0.062437 0 0.1131 0.050661 0.1131 0.1131 0 0.062453-0.050661 0.11309-0.1131 0.11309-0.062453 0-0.11309-0.050642-0.11309-0.11309 0-0.062437 0.050642-0.1131 0.11309-0.1131zm0 0.6306c0.052972 0 0.095961 0.042988 0.095961 0.095961 0 0.052992-0.042988 0.095961-0.095961 0.095961-0.052992 0-0.095961-0.042968-0.095961-0.095961 0-0.052972 0.042968-0.095961 0.095961-0.095961zm0.61652-6.9312c0.017862-0.00351 0.036307-0.00536 0.055197-0.00536 0.024114 0 0.047528 0.00301 0.06989 0.00866-0.00404-0.013673-0.00707-0.02778-0.00903-0.04222-0.019658 0.00403-0.040016 0.00615-0.060858 0.00615-0.016158 0-0.032-0.00129-0.047472-0.00374-0.00179 0.012449-0.00437 0.024642-0.00772 0.03652zm-0.026618 0.63801c0.025791-0.00829 0.053276-0.012776 0.081815-0.012776 0.034583 0 0.067646 0.00656 0.097984 0.018528-0.012327-0.02798-0.020004-0.058476-0.022035-0.090496-0.024177 0.00669-0.04965 0.01028-0.075949 0.01028-0.021465 0-0.042358-0.0024-0.062461-0.00691-0.00218 0.028618-0.00887 0.05598-0.019354 0.081374zm-0.037512 0.64807c0.035468-0.019291 0.076118-0.030244 0.11933-0.030244 0.053512 0 0.10311 0.016807 0.14379 0.045437-0.032146-0.042087-0.05126-0.094646-0.05126-0.15168 0-0.00208 0.0000276-0.00415 0.0000787-0.00622-0.028854 0.010661-0.060055 0.0165-0.09261 0.0165-0.027445 0-0.053917-0.00415-0.078842-0.011839l0.0000197 0.00156c0 0.050358-0.014894 0.097228-0.040504 0.13649zm-0.20968 1.5051c0.10975 0 0.19878 0.089024 0.19878 0.19878s-0.089024 0.19878-0.19878 0.19878-0.19878-0.089012-0.19878-0.19878c0-0.10975 0.089012-0.19878 0.19878-0.19878zm0 0.6306c0.10029 0 0.18164 0.08135 0.18164 0.18164 0 0.1003-0.081354 0.18164-0.18164 0.18164-0.1003 0-0.18164-0.081339-0.18164-0.18164 0-0.10029 0.081335-0.18164 0.18164-0.18164zm0 0.6306c0.090827 0 0.1645 0.073677 0.1645 0.1645 0 0.090842-0.073677 0.1645-0.1645 0.1645-0.090839 0-0.1645-0.073661-0.1645-0.1645 0-0.090827 0.073665-0.1645 0.1645-0.1645zm0 0.6306c0.081362 0 0.14737 0.066004 0.14737 0.14737 0 0.081378-0.066008 0.14737-0.14737 0.14737-0.081378 0-0.14737-0.065988-0.14737-0.14737 0-0.081366 0.065988-0.14737 0.14737-0.14737zm0 0.6306c0.071898 0 0.13023 0.058335 0.13023 0.13023 0 0.071917-0.058335 0.13023-0.13023 0.13023-0.071917 0-0.13023-0.058315-0.13023-0.13023 0-0.071898 0.058315-0.13023 0.13023-0.13023zm0 0.6306c0.062437 0 0.1131 0.050661 0.1131 0.1131 0 0.062453-0.050661 0.11309-0.1131 0.11309-0.062453 0-0.11309-0.050642-0.11309-0.11309 0-0.062437 0.050642-0.1131 0.11309-0.1131zm0 0.6306c0.052972 0 0.095961 0.042988 0.095961 0.095961 0 0.052992-0.042988 0.095961-0.095961 0.095961-0.052992 0-0.095961-0.042969-0.095961-0.095961 0-0.052972 0.042969-0.095961 0.095961-0.095961zm0.37516-7.2072 0.0006614 0.0001102-0.0000354-0.0001968-0.000626 0.0000866zm0.25447 0.27377c0.01374-0.00204 0.027787-0.0031 0.042095-0.0031 0.00963 0 0.019157 0.0004843 0.028543 0.00142 0.0008858-0.010362 0.00232-0.020575 0.00422-0.030614-0.01076 0.00116-0.021697 0.00178-0.032764 0.00178-0.015921 0-0.031547-0.00125-0.046803-0.00363 0.00219 0.011177 0.00378 0.022567 0.00471 0.034146zm-0.016209 0.63389c0.018772-0.00418 0.038276-0.00639 0.058303-0.00639 0.015209 0 0.030122 0.00128 0.044638 0.00372 0.0005512-0.024484 0.00422-0.048216 0.010594-0.070799-0.017866 0.00352-0.036335 0.00539-0.055232 0.00539-0.02411 0-0.047508-0.00302-0.069866-0.00867 0.00719 0.024382 0.011209 0.050126 0.011563 0.076752zm-0.0178 0.6359c0.023984-0.00765 0.049528-0.011783 0.076047-0.011783 0.021433 0 0.04224 0.00269 0.062094 0.00776-0.0002598-0.00484-0.0004055-0.00971-0.0004055-0.014618 0-0.036079 0.00718-0.070488 0.020142-0.10189-0.025791 0.00829-0.053291 0.012787-0.081831 0.012787-0.034587 0-0.067638-0.00659-0.097976-0.018547 0.014512 0.032937 0.022583 0.069354 0.022583 0.10765 0 0.00627-0.0002284 0.012476-0.0006536 0.018638zm-0.020496 0.6397c0.029421-0.013417 0.062106-0.020886 0.096543-0.020886 0.028791 0 0.05637 0.00523 0.081831 0.014784-0.00197-0.012642-0.003-0.025583-0.003-0.038776 0-0.050354 0.014906-0.097236 0.040516-0.1365-0.035469 0.019295-0.076134 0.030256-0.11934 0.030256-0.053508 0-0.10309-0.016815-0.14376-0.045445 0.032142 0.042087 0.051232 0.094661 0.051232 0.15168 0 0.015323-0.00137 0.030315-0.00402 0.044878zm-0.24617 0.96613c0.11922 0 0.21591 0.096697 0.21591 0.21591 0 0.11922-0.096697 0.21591-0.21591 0.21591-0.11923 0-0.21591-0.096685-0.21591-0.21591s0.096681-0.21591 0.21591-0.21591zm0 0.6306c0.10975 0 0.19878 0.089024 0.19878 0.19878s-0.089024 0.19878-0.19878 0.19878-0.19878-0.089012-0.19878-0.19878c0-0.10975 0.089012-0.19878 0.19878-0.19878zm0 0.6306c0.10029 0 0.18164 0.08135 0.18164 0.18164 0 0.1003-0.081354 0.18164-0.18164 0.18164-0.1003 0-0.18164-0.081339-0.18164-0.18164 0-0.10029 0.081335-0.18164 0.18164-0.18164zm0 0.6306c0.090827 0 0.1645 0.073677 0.1645 0.1645 0 0.090842-0.073677 0.1645-0.1645 0.1645-0.090839 0-0.1645-0.073661-0.1645-0.1645 0-0.090827 0.073665-0.1645 0.1645-0.1645zm0 0.6306c0.081362 0 0.14737 0.066004 0.14737 0.14737 0 0.081378-0.066008 0.14737-0.14737 0.14737-0.081378 0-0.14737-0.065988-0.14737-0.14737 0-0.081366 0.065988-0.14737 0.14737-0.14737zm0 0.6306c0.071898 0 0.13023 0.058335 0.13023 0.13023 0 0.071917-0.058335 0.13023-0.13023 0.13023-0.071917 0-0.13023-0.058315-0.13023-0.13023 0-0.071898 0.058315-0.13023 0.13023-0.13023zm0 0.6306c0.062437 0 0.1131 0.050661 0.1131 0.1131 0 0.062453-0.050661 0.11309-0.1131 0.11309-0.062453 0-0.11309-0.050642-0.11309-0.11309 0-0.062437 0.050642-0.1131 0.11309-0.1131zm0 0.6306c0.052972 0 0.095961 0.042988 0.095961 0.095961 0 0.052992-0.042988 0.095961-0.095961 0.095961-0.052992 0-0.095961-0.042969-0.095961-0.095961 0-0.052972 0.042969-0.095961 0.095961-0.095961zm0.61652-6.9312c0.017862-0.00351 0.036307-0.00536 0.055197-0.00536 0.024114 0 0.047528 0.00301 0.06989 0.00866-0.00404-0.013673-0.00707-0.027779-0.00903-0.04222-0.019658 0.00403-0.040016 0.00615-0.060858 0.00615-0.016157 0-0.032-0.00129-0.047472-0.00374-0.00179 0.012449-0.00437 0.024642-0.00772 0.03652zm-0.026618 0.63801c0.025791-0.00829 0.053276-0.012776 0.081815-0.012776 0.034583 0 0.067646 0.00656 0.097984 0.018528-0.012327-0.02798-0.020004-0.058476-0.022035-0.090496-0.024177 0.00669-0.04965 0.010279-0.075949 0.010279-0.021465 0-0.042358-0.0024-0.062461-0.00691-0.00218 0.028618-0.00887 0.05598-0.019354 0.081374zm-0.037512 0.64807c0.035469-0.019291 0.076118-0.030244 0.11933-0.030244 0.053512 0 0.10311 0.016807 0.14379 0.045437-0.032146-0.042087-0.05126-0.094646-0.05126-0.15168 0-0.00208 0.0000276-0.00415 0.0000787-0.00622-0.028854 0.010661-0.060055 0.0165-0.09261 0.0165-0.027445 0-0.053917-0.00415-0.078843-0.011839l0.0000197 0.00156c0 0.050358-0.014894 0.097228-0.040504 0.13649zm-0.20968 1.5051c0.10975 0 0.19878 0.089024 0.19878 0.19878s-0.089024 0.19878-0.19878 0.19878-0.19878-0.089012-0.19878-0.19878c0-0.10975 0.089012-0.19878 0.19878-0.19878zm0 0.6306c0.10029 0 0.18164 0.08135 0.18164 0.18164 0 0.1003-0.081354 0.18164-0.18164 0.18164-0.1003 0-0.18164-0.081339-0.18164-0.18164 0-0.10029 0.081335-0.18164 0.18164-0.18164zm0 0.6306c0.090827 0 0.1645 0.073677 0.1645 0.1645 0 0.090843-0.073677 0.1645-0.1645 0.1645-0.090839 0-0.1645-0.073661-0.1645-0.1645 0-0.090827 0.073665-0.1645 0.1645-0.1645zm0 0.6306c0.081362 0 0.14737 0.066004 0.14737 0.14737 0 0.081378-0.066008 0.14737-0.14737 0.14737-0.081378 0-0.14737-0.065988-0.14737-0.14737 0-0.081366 0.065988-0.14737 0.14737-0.14737zm0 0.6306c0.071898 0 0.13023 0.058335 0.13023 0.13023 0 0.071917-0.058335 0.13023-0.13023 0.13023-0.071917 0-0.13023-0.058315-0.13023-0.13023 0-0.071898 0.058315-0.13023 0.13023-0.13023zm0 0.6306c0.062437 0 0.1131 0.050661 0.1131 0.1131 0 0.062453-0.050661 0.11309-0.1131 0.11309-0.062453 0-0.11309-0.050642-0.11309-0.11309 0-0.062437 0.050642-0.1131 0.11309-0.1131zm0 0.6306c0.052972 0 0.095961 0.042988 0.095961 0.095961 0 0.052992-0.042988 0.095961-0.095961 0.095961-0.052992 0-0.095961-0.042968-0.095961-0.095961 0-0.052972 0.042969-0.095961 0.095961-0.095961zm0.37516-7.2072 0.0006614 0.0001102-0.0000354-0.0001968-0.000626 0.0000866zm0.25447 0.27377c0.01374-0.00204 0.027787-0.0031 0.042094-0.0031 0.00963 0 0.019158 0.0004843 0.028543 0.00142 0.0008858-0.010362 0.00231-0.020575 0.00422-0.030614-0.01076 0.00116-0.021697 0.00178-0.032764 0.00178-0.015921 0-0.031547-0.00125-0.046803-0.00363 0.00219 0.011177 0.00378 0.022567 0.00471 0.034146zm-0.016209 0.63389c0.018772-0.00418 0.038276-0.00639 0.058303-0.00639 0.015209 0 0.030122 0.00128 0.044638 0.00372 0.0005512-0.024484 0.00422-0.048217 0.010595-0.070799-0.017866 0.00352-0.036335 0.00539-0.055232 0.00539-0.02411 0-0.047508-0.00302-0.069866-0.00867 0.00719 0.024382 0.011209 0.050126 0.011563 0.076752zm-0.017744 0.63599c0.023984-0.00765 0.049528-0.011783 0.076047-0.011783 0.021433 0 0.04224 0.00269 0.062094 0.00776-0.0002598-0.00484-0.0004055-0.00971-0.0004055-0.014618 0-0.036079 0.00718-0.070488 0.020142-0.10189-0.025791 0.00829-0.053291 0.012787-0.081831 0.012787-0.034587 0-0.067638-0.00659-0.097976-0.018547 0.014512 0.032937 0.022583 0.069354 0.022583 0.10765 0 0.00627-0.0002284 0.012476-0.0006536 0.018638zm-0.020496 0.6397c0.029421-0.013417 0.062106-0.020886 0.096543-0.020886 0.028791 0 0.05637 0.00523 0.081831 0.014784-0.00197-0.012642-0.003-0.025583-0.003-0.038776 0-0.050354 0.014906-0.097236 0.040516-0.1365-0.035469 0.019295-0.076134 0.030256-0.11934 0.030256-0.053508 0-0.10309-0.016815-0.14376-0.045445 0.032142 0.042087 0.051232 0.094661 0.051232 0.15168 0 0.015323-0.00137 0.030315-0.00402 0.044878zm-0.24617 0.96613c0.11922 0 0.21591 0.096697 0.21591 0.21591 0 0.11922-0.096697 0.21591-0.21591 0.21591-0.11923 0-0.21591-0.096685-0.21591-0.21591s0.096681-0.21591 0.21591-0.21591zm0 0.6306c0.10975 0 0.19878 0.089024 0.19878 0.19878s-0.089024 0.19878-0.19878 0.19878-0.19878-0.089012-0.19878-0.19878c0-0.10975 0.089012-0.19878 0.19878-0.19878zm0 0.6306c0.10029 0 0.18164 0.08135 0.18164 0.18164 0 0.1003-0.081354 0.18164-0.18164 0.18164-0.1003 0-0.18164-0.081339-0.18164-0.18164 0-0.10029 0.081335-0.18164 0.18164-0.18164zm0 0.6306c0.090827 0 0.1645 0.073677 0.1645 0.1645 0 0.090842-0.073677 0.1645-0.1645 0.1645-0.090839 0-0.1645-0.073661-0.1645-0.1645 0-0.090827 0.073665-0.1645 0.1645-0.1645zm0 0.6306c0.081362 0 0.14737 0.066004 0.14737 0.14737 0 0.081378-0.066008 0.14737-0.14737 0.14737-0.081378 0-0.14737-0.065988-0.14737-0.14737 0-0.081366 0.065988-0.14737 0.14737-0.14737zm0 0.6306c0.071898 0 0.13023 0.058335 0.13023 0.13023 0 0.071917-0.058335 0.13023-0.13023 0.13023-0.071917 0-0.13023-0.058315-0.13023-0.13023 0-0.071898 0.058315-0.13023 0.13023-0.13023zm0 0.6306c0.062437 0 0.1131 0.050661 0.1131 0.1131 0 0.062453-0.050661 0.11309-0.1131 0.11309-0.062453 0-0.11309-0.050642-0.11309-0.11309 0-0.062437 0.050642-0.1131 0.11309-0.1131zm0 0.6306c0.052972 0 0.095961 0.042988 0.095961 0.095961 0 0.052992-0.042988 0.095961-0.095961 0.095961-0.052992 0-0.095961-0.042969-0.095961-0.095961 0-0.052972 0.042968-0.095961 0.095961-0.095961zm0.61652-6.9312c0.017862-0.00351 0.036307-0.00536 0.055197-0.00536 0.024114 0 0.047528 0.00301 0.06989 0.00866-0.00404-0.013673-0.00707-0.027779-0.00903-0.04222-0.019657 0.00403-0.040016 0.00615-0.060858 0.00615-0.016158 0-0.032-0.00129-0.047472-0.00374-0.00179 0.012449-0.00437 0.024642-0.00772 0.03652zm-0.026618 0.63801c0.025791-0.00829 0.053276-0.012776 0.081815-0.012776 0.034583 0 0.067646 0.00656 0.097984 0.018528-0.012327-0.02798-0.020004-0.058476-0.022035-0.090496-0.024177 0.00669-0.04965 0.01028-0.075949 0.01028-0.021465 0-0.042358-0.0024-0.062461-0.00691-0.00218 0.028618-0.00887 0.05598-0.019354 0.081374zm-0.037512 0.64807c0.035468-0.019291 0.076118-0.030244 0.11933-0.030244 0.053512 0 0.10311 0.016807 0.14379 0.045437-0.032146-0.042087-0.05126-0.094646-0.05126-0.15168 0-0.00208 0.0000276-0.00415 0.0000787-0.00622-0.028854 0.010661-0.060055 0.0165-0.09261 0.0165-0.027445 0-0.053917-0.00415-0.078842-0.011839l0.0000197 0.00156c0 0.050358-0.014894 0.097228-0.040504 0.13649zm-0.20968 1.5051c0.10975 0 0.19878 0.089024 0.19878 0.19878s-0.089024 0.19878-0.19878 0.19878-0.19878-0.089012-0.19878-0.19878c0-0.10975 0.089012-0.19878 0.19878-0.19878zm0 0.6306c0.10029 0 0.18164 0.08135 0.18164 0.18164 0 0.1003-0.081354 0.18164-0.18164 0.18164-0.1003 0-0.18164-0.081339-0.18164-0.18164 0-0.10029 0.081335-0.18164 0.18164-0.18164zm0 0.6306c0.090827 0 0.1645 0.073677 0.1645 0.1645 0 0.090842-0.073677 0.1645-0.1645 0.1645-0.090839 0-0.1645-0.073661-0.1645-0.1645 0-0.090827 0.073665-0.1645 0.1645-0.1645zm0 0.6306c0.081362 0 0.14737 0.066004 0.14737 0.14737 0 0.081378-0.066008 0.14737-0.14737 0.14737-0.081378 0-0.14737-0.065988-0.14737-0.14737 0-0.081366 0.065988-0.14737 0.14737-0.14737zm0 0.6306c0.071898 0 0.13023 0.058335 0.13023 0.13023 0 0.071917-0.058335 0.13023-0.13023 0.13023-0.071917 0-0.13023-0.058315-0.13023-0.13023 0-0.071898 0.058315-0.13023 0.13023-0.13023zm0 0.6306c0.062437 0 0.1131 0.050661 0.1131 0.1131 0 0.062453-0.050661 0.11309-0.1131 0.11309-0.062453 0-0.11309-0.050642-0.11309-0.11309 0-0.062437 0.050642-0.1131 0.11309-0.1131zm0 0.6306c0.052972 0 0.095961 0.042988 0.095961 0.095961 0 0.052992-0.042988 0.095961-0.095961 0.095961-0.052992 0-0.095961-0.042969-0.095961-0.095961 0-0.052972 0.042968-0.095961 0.095961-0.095961zm0.37516-7.2072 0.0006614 0.0001102-0.0000354-0.0001968-0.000626 0.0000866zm0.25447 0.27377c0.01374-0.00204 0.027787-0.0031 0.042095-0.0031 0.00963 0 0.019158 0.0004843 0.028543 0.00142 0.0008858-0.010362 0.00232-0.020575 0.00422-0.030614-0.01076 0.00116-0.021697 0.00178-0.032764 0.00178-0.015921 0-0.031547-0.00125-0.046803-0.00363 0.00219 0.011177 0.00378 0.022567 0.00471 0.034146zm-0.016209 0.63389c0.018772-0.00418 0.038276-0.00639 0.058303-0.00639 0.015209 0 0.030122 0.00128 0.044638 0.00372 0.0005512-0.024484 0.00422-0.048216 0.010594-0.070799-0.017866 0.00352-0.036335 0.00539-0.055232 0.00539-0.02411 0-0.047508-0.00302-0.069866-0.00867 0.00719 0.024382 0.011209 0.050126 0.011563 0.076752zm-0.0179 0.6358c0.024-0.0077 0.0495-0.0118 0.0761-0.0118 0.021433 0 0.04224 0.00269 0.062095 0.00776-0.0002598-0.00484-0.0004055-0.00971-0.0004055-0.014618 0-0.036079 0.00718-0.070488 0.020142-0.10189-0.025791 0.00829-0.053291 0.012787-0.081831 0.012787-0.034587 0-0.067638-0.00659-0.097976-0.018547 0.014512 0.032937 0.022583 0.069354 0.022583 0.10765 0 0.00627-0.0002284 0.012476-0.0006536 0.018638zm-0.0205 0.6397c0.0294-0.0135 0.0621-0.0209 0.0966-0.0209 0.028791 0 0.05637 0.00523 0.081831 0.014784-0.00197-0.012642-0.003-0.025583-0.003-0.038776 0-0.050354 0.014905-0.097236 0.040516-0.1365-0.035468 0.019295-0.076134 0.030256-0.11934 0.030256-0.053508 0-0.10309-0.016815-0.14376-0.045445 0.032142 0.042087 0.051232 0.094661 0.051232 0.15168 0 0.015323-0.00137 0.030315-0.00402 0.044878zm-0.2461 0.9661c0.11922 0 0.21591 0.096697 0.21591 0.21591 0 0.11922-0.096697 0.21591-0.21591 0.21591-0.11923 0-0.21591-0.096685-0.21591-0.21591s0.096681-0.21591 0.21591-0.21591zm0 0.6306c0.10975 0 0.19878 0.089024 0.19878 0.19878s-0.089024 0.19878-0.19878 0.19878-0.19878-0.089012-0.19878-0.19878c0-0.10975 0.089012-0.19878 0.19878-0.19878zm0 0.6306c0.10029 0 0.18164 0.08135 0.18164 0.18164 0 0.1003-0.081354 0.18164-0.18164 0.18164-0.1003 0-0.18164-0.081339-0.18164-0.18164 0-0.10029 0.081335-0.18164 0.18164-0.18164zm0 0.6306c0.090827 0 0.1645 0.073677 0.1645 0.1645 0 0.090842-0.073677 0.1645-0.1645 0.1645-0.090839 0-0.1645-0.073661-0.1645-0.1645 0-0.090827 0.073665-0.1645 0.1645-0.1645zm0 0.6306c0.081362 0 0.14737 0.066004 0.14737 0.14737 0 0.081378-0.066008 0.14737-0.14737 0.14737-0.081378 0-0.14737-0.065988-0.14737-0.14737 0-0.081366 0.065988-0.14737 0.14737-0.14737zm0 0.6306c0.071898 0 0.13023 0.058335 0.13023 0.13023 0 0.071917-0.058335 0.13023-0.13023 0.13023-0.071917 0-0.13023-0.058315-0.13023-0.13023 0-0.071898 0.058315-0.13023 0.13023-0.13023zm0 0.6306c0.062437 0 0.1131 0.050661 0.1131 0.1131 0 0.062453-0.050661 0.11309-0.1131 0.11309-0.062453 0-0.11309-0.050642-0.11309-0.11309 0-0.062437 0.050642-0.1131 0.11309-0.1131zm0 0.6306c0.052972 0 0.095961 0.042988 0.095961 0.095961 0 0.052992-0.042988 0.095961-0.095961 0.095961-0.052992 0-0.095961-0.042968-0.095961-0.095961 0-0.052972 0.042968-0.095961 0.095961-0.095961zm0.61652-6.9312c0.017862-0.00351 0.036307-0.00536 0.055197-0.00536 0.024114 0 0.047528 0.00301 0.06989 0.00866-0.00404-0.013673-0.00707-0.027779-0.00903-0.04222-0.019658 0.00403-0.040016 0.00615-0.060858 0.00615-0.016158 0-0.032-0.00129-0.047472-0.00374-0.00179 0.012449-0.00437 0.024642-0.00772 0.03652zm-0.0266 0.638c0.025791-0.00829 0.053276-0.012776 0.081815-0.012776 0.034583 0 0.067646 0.00656 0.097984 0.018528-0.0124-0.0281-0.02-0.0586-0.0221-0.0906-0.0242 0.0067-0.0496 0.0103-0.0759 0.0103-0.021465 0-0.042358-0.0024-0.062461-0.00691-0.00218 0.028618-0.00887 0.05598-0.019354 0.081374zm-0.0376 0.648c0.0355-0.0193 0.0762-0.0302 0.1194-0.0302 0.053512 0 0.10311 0.016807 0.14379 0.045437-0.0322-0.0421-0.0513-0.0946-0.0513-0.1516 0-0.00208 0.0000276-0.00415 0.0000787-0.00622-0.028854 0.010661-0.060055 0.0165-0.09261 0.0165-0.027445 0-0.053917-0.00415-0.078843-0.011839l0.0000197 0.00156c0 0.050358-0.014894 0.097228-0.040504 0.13649zm-0.20968 1.5051c0.10975 0 0.19878 0.089024 0.19878 0.19878s-0.089024 0.19878-0.19878 0.19878-0.19878-0.089012-0.19878-0.19878c0-0.10975 0.089012-0.19878 0.19878-0.19878zm0 0.6306c0.10029 0 0.18164 0.08135 0.18164 0.18164 0 0.1003-0.081354 0.18164-0.18164 0.18164-0.1003 0-0.18164-0.081339-0.18164-0.18164 0-0.10029 0.081335-0.18164 0.18164-0.18164zm0 0.6306c0.090827 0 0.1645 0.073677 0.1645 0.1645 0 0.090842-0.073677 0.1645-0.1645 0.1645-0.090839 0-0.1645-0.073661-0.1645-0.1645 0-0.090827 0.073665-0.1645 0.1645-0.1645zm0 0.6306c0.081362 0 0.14737 0.066004 0.14737 0.14737 0 0.081378-0.066008 0.14737-0.14737 0.14737-0.081378 0-0.14737-0.065988-0.14737-0.14737 0-0.081366 0.065988-0.14737 0.14737-0.14737zm0 0.6306c0.071898 0 0.13023 0.058335 0.13023 0.13023 0 0.071917-0.058335 0.13023-0.13023 0.13023-0.071917 0-0.13023-0.058315-0.13023-0.13023 0-0.071898 0.058315-0.13023 0.13023-0.13023zm0 0.6306c0.062437 0 0.1131 0.050661 0.1131 0.1131 0 0.062453-0.050661 0.11309-0.1131 0.11309-0.062453 0-0.11309-0.050642-0.11309-0.11309 0-0.062437 0.050642-0.1131 0.11309-0.1131zm0 0.6306c0.052972 0 0.095961 0.042988 0.095961 0.095961 0 0.052992-0.042988 0.095961-0.095961 0.095961-0.052992 0-0.095961-0.042968-0.095961-0.095961 0-0.052972 0.042968-0.095961 0.095961-0.095961zm0.3752-7.2072 0.0007 0.0001-0.0001-0.0002-0.0006 0.0001zm0.2545 0.2738c0.01374-0.00204 0.027787-0.0031 0.042095-0.0031 0.00963 0 0.019157 0.0004843 0.028543 0.00142 0.0008858-0.010362 0.00231-0.020575 0.00422-0.030614-0.01076 0.00116-0.021697 0.00178-0.032764 0.00178-0.015921 0-0.031547-0.00125-0.046803-0.00363 0.00219 0.011177 0.00378 0.022567 0.00471 0.034146zm-0.016209 0.63389c0.018772-0.00418 0.038276-0.00639 0.058303-0.00639 0.015209 0 0.030122 0.00128 0.044638 0.00372 0.0005512-0.024484 0.00422-0.048217 0.010594-0.070799-0.017866 0.00352-0.036335 0.00539-0.055232 0.00539-0.02411 0-0.047508-0.00302-0.069866-0.00867 0.00719 0.024382 0.011209 0.050126 0.011563 0.076752zm-0.0178 0.6359c0.023984-0.00765 0.049528-0.011783 0.076047-0.011783 0.021433 0 0.04224 0.00269 0.062094 0.00776-0.0002598-0.00484-0.0004055-0.00971-0.0004055-0.014618 0-0.036079 0.00718-0.070488 0.020142-0.10189-0.025791 0.00829-0.053291 0.012787-0.081831 0.012787-0.034587 0-0.067638-0.00659-0.097976-0.018547 0.014512 0.032937 0.022583 0.069354 0.022583 0.10765 0 0.00627-0.0002284 0.012476-0.0006536 0.018638zm-0.0205 0.6397c0.0295-0.0134 0.0621-0.0208 0.0966-0.0208 0.028791 0 0.05637 0.00523 0.081831 0.014784-0.00197-0.012642-0.003-0.025583-0.003-0.038776 0-0.050354 0.014906-0.097236 0.040516-0.1365-0.035469 0.019295-0.076134 0.030256-0.11934 0.030256-0.053508 0-0.10309-0.016815-0.14376-0.045445 0.032142 0.042087 0.051232 0.094661 0.051232 0.15168 0 0.015323-0.00137 0.030315-0.00402 0.044878zm-0.2461 0.9662c0.11922 0 0.21591 0.096697 0.21591 0.21591 0 0.11922-0.096697 0.21591-0.21591 0.21591-0.11923 0-0.21591-0.096685-0.21591-0.21591s0.096681-0.21591 0.21591-0.21591zm0 0.6306c0.10975 0 0.19878 0.089024 0.19878 0.19878s-0.089024 0.19878-0.19878 0.19878-0.19878-0.089012-0.19878-0.19878c0-0.10975 0.089012-0.19878 0.19878-0.19878zm0 0.6306c0.10029 0 0.18164 0.08135 0.18164 0.18164 0 0.1003-0.081354 0.18164-0.18164 0.18164-0.1003 0-0.18164-0.081339-0.18164-0.18164 0-0.10029 0.081335-0.18164 0.18164-0.18164zm0 0.6306c0.090827 0 0.1645 0.073677 0.1645 0.1645 0 0.090842-0.073677 0.1645-0.1645 0.1645-0.090839 0-0.1645-0.073661-0.1645-0.1645 0-0.090827 0.073665-0.1645 0.1645-0.1645zm0 0.6306c0.081362 0 0.14737 0.066004 0.14737 0.14737 0 0.081378-0.066008 0.14737-0.14737 0.14737-0.081378 0-0.14737-0.065988-0.14737-0.14737 0-0.081366 0.065988-0.14737 0.14737-0.14737zm0 0.6306c0.071898 0 0.13023 0.058335 0.13023 0.13023 0 0.071917-0.058335 0.13023-0.13023 0.13023-0.071917 0-0.13023-0.058315-0.13023-0.13023 0-0.071898 0.058315-0.13023 0.13023-0.13023zm0 0.6306c0.062437 0 0.1131 0.050661 0.1131 0.1131 0 0.062453-0.050661 0.11309-0.1131 0.11309-0.062453 0-0.11309-0.050642-0.11309-0.11309 0-0.062437 0.050642-0.1131 0.11309-0.1131zm0 0.6306c0.052972 0 0.095961 0.042988 0.095961 0.095961 0 0.052992-0.042988 0.095961-0.095961 0.095961-0.052992 0-0.095961-0.042969-0.095961-0.095961 0-0.052972 0.042969-0.095961 0.095961-0.095961zm0.61652-6.9312c0.017862-0.00351 0.036307-0.00536 0.055197-0.00536 0.024114 0 0.047528 0.00301 0.06989 0.00866-0.00404-0.013673-0.00707-0.027779-0.00903-0.04222-0.019658 0.00403-0.040016 0.00615-0.060858 0.00615-0.016158 0-0.032-0.00129-0.047472-0.00374-0.00179 0.012449-0.00437 0.024642-0.00772 0.03652zm-0.0266 0.638c0.025791-0.00829 0.053276-0.012776 0.081815-0.012776 0.034583 0 0.067646 0.00656 0.097984 0.018528-0.0124-0.0281-0.02-0.0586-0.0221-0.0906-0.024177 0.00669-0.04965 0.01028-0.075949 0.01028-0.021465 0-0.042358-0.0024-0.062461-0.00691-0.00218 0.028618-0.00887 0.05598-0.019354 0.081374zm-0.0375 0.648c0.035468-0.019291 0.076118-0.030244 0.11933-0.030244 0.053512 0 0.10311 0.016807 0.14379 0.045437-0.032146-0.042087-0.05126-0.094646-0.05126-0.15168 0-0.00208 0.0000276-0.00415 0.0000787-0.00622-0.028854 0.010661-0.060055 0.0165-0.09261 0.0165-0.027445 0-0.053917-0.00415-0.078842-0.011839l0.0000197 0.00156c0 0.050358-0.014894 0.097228-0.040504 0.13649zm-0.20968 1.5051c0.10975 0 0.19878 0.089024 0.19878 0.19878s-0.089024 0.19878-0.19878 0.19878-0.19878-0.089012-0.19878-0.19878c0-0.10975 0.089012-0.19878 0.19878-0.19878zm0 0.6306c0.10029 0 0.18164 0.08135 0.18164 0.18164 0 0.1003-0.081354 0.18164-0.18164 0.18164-0.1003 0-0.18164-0.081339-0.18164-0.18164 0-0.10029 0.081335-0.18164 0.18164-0.18164zm0 0.6306c0.090827 0 0.1645 0.073677 0.1645 0.1645 0 0.090842-0.073677 0.1645-0.1645 0.1645-0.090839 0-0.1645-0.073661-0.1645-0.1645 0-0.090827 0.073665-0.1645 0.1645-0.1645zm0 0.6306c0.081362 0 0.14737 0.066004 0.14737 0.14737 0 0.081378-0.066008 0.14737-0.14737 0.14737-0.081378 0-0.14737-0.065988-0.14737-0.14737 0-0.081366 0.065988-0.14737 0.14737-0.14737zm0 0.6306c0.071898 0 0.13023 0.058335 0.13023 0.13023 0 0.071917-0.058335 0.13023-0.13023 0.13023-0.071917 0-0.13023-0.058315-0.13023-0.13023 0-0.071898 0.058315-0.13023 0.13023-0.13023zm0 0.6306c0.062437 0 0.1131 0.050661 0.1131 0.1131 0 0.062453-0.050661 0.11309-0.1131 0.11309-0.062453 0-0.11309-0.050642-0.11309-0.11309 0-0.062437 0.050642-0.1131 0.11309-0.1131zm0 0.6306c0.052972 0 0.095961 0.042988 0.095961 0.095961 0 0.052992-0.042988 0.095961-0.095961 0.095961-0.052992 0-0.095961-0.042969-0.095961-0.095961 0-0.052972 0.042968-0.095961 0.095961-0.095961zm0.37516-7.2072 0.0006614 0.0001102-0.0000354-0.0001968-0.000626 0.0000866zm-0.04615 3.1495c0.11922 0 0.21591 0.096697 0.21591 0.21591 0 0.11922-0.096697 0.21591-0.21591 0.21591-0.11923 0-0.21591-0.096685-0.21591-0.21591s0.096681-0.21591 0.21591-0.21591zm0 0.6306c0.10975 0 0.19878 0.089024 0.19878 0.19878s-0.089024 0.19878-0.19878 0.19878-0.19878-0.089012-0.19878-0.19878c0-0.10975 0.089012-0.19878 0.19878-0.19878zm0 0.6306c0.10029 0 0.18164 0.08135 0.18164 0.18164 0 0.1003-0.081354 0.18164-0.18164 0.18164-0.1003 0-0.18164-0.081339-0.18164-0.18164 0-0.10029 0.081335-0.18164 0.18164-0.18164zm0 0.6306c0.090827 0 0.1645 0.073677 0.1645 0.1645 0 0.090842-0.073677 0.1645-0.1645 0.1645-0.090839 0-0.1645-0.073661-0.1645-0.1645 0-0.090827 0.073665-0.1645 0.1645-0.1645zm0 0.6306c0.081362 0 0.14737 0.066004 0.14737 0.14737 0 0.081378-0.066008 0.14737-0.14737 0.14737-0.081378 0-0.14737-0.065988-0.14737-0.14737 0-0.081366 0.065988-0.14737 0.14737-0.14737zm0 0.6306c0.071898 0 0.13023 0.058335 0.13023 0.13023 0 0.071917-0.058335 0.13023-0.13023 0.13023-0.071917 0-0.13023-0.058315-0.13023-0.13023 0-0.071898 0.058315-0.13023 0.13023-0.13023zm0 0.6306c0.062437 0 0.1131 0.050661 0.1131 0.1131 0 0.062453-0.050661 0.11309-0.1131 0.11309-0.062453 0-0.11309-0.050642-0.11309-0.11309 0-0.062437 0.050642-0.1131 0.11309-0.1131zm0.34271-3.5094c0.10975 0 0.19878 0.089024 0.19878 0.19878s-0.089024 0.19878-0.19878 0.19878-0.19878-0.089012-0.19878-0.19878c0-0.10975 0.089012-0.19878 0.19878-0.19878zm0 0.6306c0.10029 0 0.18164 0.08135 0.18164 0.18164 0 0.1003-0.081354 0.18164-0.18164 0.18164-0.1003 0-0.18164-0.081339-0.18164-0.18164 0-0.10029 0.081335-0.18164 0.18164-0.18164zm0 0.6306c0.090827 0 0.1645 0.073677 0.1645 0.1645 0 0.090842-0.073677 0.1645-0.1645 0.1645-0.090839 0-0.1645-0.073661-0.1645-0.1645 0-0.090827 0.073665-0.1645 0.1645-0.1645zm0 0.6306c0.081362 0 0.14737 0.066004 0.14737 0.14737 0 0.081378-0.066008 0.14737-0.14737 0.14737-0.081378 0-0.14737-0.065988-0.14737-0.14737 0-0.081366 0.065988-0.14737 0.14737-0.14737zm0 0.6306c0.071898 0 0.13023 0.058335 0.13023 0.13023 0 0.071917-0.058335 0.13023-0.13023 0.13023-0.071917 0-0.13023-0.058315-0.13023-0.13023 0-0.071898 0.058315-0.13023 0.13023-0.13023zm0 0.6306c0.062437 0 0.1131 0.050661 0.1131 0.1131 0 0.062453-0.050661 0.11309-0.1131 0.11309-0.062453 0-0.11309-0.050642-0.11309-0.11309 0-0.062437 0.050642-0.1131 0.11309-0.1131zm0 0.6306c0.052972 0 0.095961 0.042988 0.095961 0.095961 0 0.052992-0.042988 0.095961-0.095961 0.095961-0.052992 0-0.095961-0.042969-0.095961-0.095961 0-0.052972 0.042969-0.095961 0.095961-0.095961zm-0.34271 0.35642c0.052972 0 0.095961 0.042988 0.095961 0.095961 0 0.052992-0.042988 0.095961-0.095961 0.095961-0.052992 0-0.095961-0.042969-0.095961-0.095961 0-0.052972 0.042968-0.095961 0.095961-0.095961z" /></g></pattern><filter
       id="filter5480"
       inkscape:collect="always"
       color-interpolation-filters="sRGB"
       x="-1.6274386"
       y="-0.92217996"
       width="4.2548773"
       height="2.8443599"><feGaussianBlur
         id="feGaussianBlur5482"
         stdDeviation="7.6825276"
         inkscape:collect="always" /></filter><linearGradient
       id="linearGradient5521"
       y2="239.96"
       gradientUnits="userSpaceOnUse"
       x2="422.53"
       y1="239.96"
       x1="289.91"
       inkscape:collect="always"><stop
         id="stop3808"
         style="stop-color:#464040"
         offset="0" /><stop
         id="stop3814"
         style="stop-color:#d8d8d8"
         offset=".5" /><stop
         id="stop3810"
         style="stop-color:#999999;stop-opacity:.99301"
         offset="1" /></linearGradient><linearGradient
       id="linearGradient5523"
       y2="606.56"
       gradientUnits="userSpaceOnUse"
       x2="364.75"
       gradientTransform="translate(-34.05,428.34)"
       y1="605.61"
       x1="623.94"
       inkscape:collect="always"><stop
         id="stop3032"
         style="stop-color:#beaaff"
         offset="0" /><stop
         id="stop3034"
         style="stop-color:#beaaff;stop-opacity:0"
         offset="1" /></linearGradient><linearGradient
       id="linearGradient5527"
       y2="613.1"
       gradientUnits="userSpaceOnUse"
       x2="513.17"
       gradientTransform="translate(-34.05,366.34)"
       y1="613.1"
       x1="289.24"
       inkscape:collect="always"><stop
         id="stop3820"
         style="stop-color:#ffffff"
         offset="0" /><stop
         id="stop3822"
         style="stop-color:#ffffff;stop-opacity:0"
         offset="1" /></linearGradient><linearGradient
       id="linearGradient5529"
       y2="652.49"
       xlink:href="#linearGradient3828"
       gradientUnits="userSpaceOnUse"
       x2="382.54"
       gradientTransform="translate(-34.05,366.34)"
       y1="656.49"
       x1="277.24"
       inkscape:collect="always" /><linearGradient
       id="linearGradient3989"
       y2="652.49"
       xlink:href="#linearGradient3828"
       gradientUnits="userSpaceOnUse"
       x2="382.54"
       gradientTransform="translate(-35.935,379.53)"
       y1="656.49"
       x1="277.24"
       inkscape:collect="always" /><linearGradient
       id="linearGradient4051"
       y2="640.11"
       spreadMethod="reflect"
       gradientUnits="userSpaceOnUse"
       x2="447.06"
       y1="640.11"
       x1="400.47"
       inkscape:collect="always"><stop
         id="stop4055"
         style="stop-color:#beaaff;stop-opacity:0"
         offset="0" /><stop
         id="stop4059"
         style="stop-color:#beaaff"
         offset=".5" /><stop
         id="stop4057"
         style="stop-color:#beaaff;stop-opacity:0"
         offset="1" /></linearGradient></defs><sodipodi:namedview
     id="base"
     pagecolor="#ffffff"
     bordercolor="#666666"
     borderopacity="1.0"
     inkscape:pageopacity="0.0"
     inkscape:pageshadow="2"
     inkscape:zoom="1.6256489"
     inkscape:cx="204.84128"
     inkscape:cy="187.92496"
     inkscape:document-units="px"
     inkscape:current-layer="layer1"
     showgrid="false"
     units="px"
     inkscape:window-width="1920"
     inkscape:window-height="1011"
     inkscape:window-x="0"
     inkscape:window-y="32"
     inkscape:window-maximized="1"
     showguides="true"
     inkscape:guide-bbox="true"
     inkscape:showpageshadow="2"
     inkscape:pagecheckerboard="0"
     inkscape:deskcolor="#d1d1d1"><sodipodi:guide
       position="52.499948,79.375001"
       orientation="1,0"
       id="guide135"
       inkscape:locked="false"
       inkscape:label="Milieu"
       inkscape:color="rgb(0,0,255)" /><sodipodi:guide
       position="104.9999,79.375001"
       orientation="1,0"
       id="guide137"
       inkscape:locked="false"
       inkscape:label="Droite"
       inkscape:color="rgb(0,0,255)" /><sodipodi:guide
       position="0,79.375001"
       orientation="1,0"
       id="guide151"
       inkscape:locked="false"
       inkscape:label="Gauche"
       inkscape:color="rgb(0,0,255)" /></sodipodi:namedview><metadata
     id="metadata5"><rdf:RDF><cc:Work
         rdf:about=""><dc:format>image/svg+xml</dc:format><dc:type
           rdf:resource="http://purl.org/dc/dcmitype/StillImage" /><dc:title /></cc:Work></rdf:RDF></metadata><g
     inkscape:label="Calque 1"
     inkscape:groupmode="layer"
     id="layer1"
     transform="translate(0,-222.99998)"><flowRoot
       xml:space="preserve"
       id="flowRoot125"
       style="font-style:normal;font-variant:normal;font-weight:normal;font-stretch:normal;font-size:42.6667px;line-height:1.25;font-family:Schoolbell;-inkscape-font-specification:Schoolbell;text-align:center;letter-spacing:0px;word-spacing:0px;text-anchor:middle;fill:#000000;fill-opacity:1;stroke:none"
       transform="matrix(0.26458334,0,0,0.26458334,0,222.99999)"><flowRegion
         id="flowRegion127"
         style="font-size:42.6667px;text-align:center;text-anchor:middle"><rect
           id="rect129"
           width="396.84991"
           height="60.025715"
           x="0"
           y="7.3944674"
           style="font-size:42.66666412px;text-align:center;text-anchor:middle" /></flowRegion><flowPara
         id="flowPara131">Briquet</flowPara></flowRoot><g
       id="g866"
       transform="translate(0,-2.2280147)"><flowRoot
         transform="matrix(0.26458334,0,0,0.26458334,0,228.29168)"
         style="font-style:normal;font-variant:normal;font-weight:normal;font-stretch:normal;font-size:32px;line-height:1.25;font-family:Schoolbell;-inkscape-font-specification:Schoolbell;text-align:center;letter-spacing:0px;word-spacing:0px;text-anchor:middle;fill:#000000;fill-opacity:1;stroke:none"
         id="flowRoot139"
         xml:space="preserve"><flowRegion
           style="text-align:center;text-anchor:middle"
           id="flowRegion141"><rect
             style="text-align:center;text-anchor:middle"
             y="81.33918"
             x="198.4252"
             height="124.83609"
             width="198.4248"
             id="rect143" /></flowRegion><flowPara
           id="flowPara145">Permet d'allumer un feu</flowPara></flowRoot><flowRoot
         transform="matrix(0.26458334,0,0,0.26458334,0,222.9349)"
         style="font-style:normal;font-variant:normal;font-weight:normal;font-stretch:normal;font-size:26.6667px;line-height:1.25;font-family:Schoolbell;-inkscape-font-specification:Schoolbell;text-align:center;letter-spacing:0px;word-spacing:0px;text-anchor:middle;fill:#000000;fill-opacity:1;stroke:none"
         id="flowRoot842"
         xml:space="preserve"><flowRegion
           style="font-size:26.6667px;text-align:center;text-anchor:middle"
           id="flowRegion844"><rect
             style="font-size:26.66666603px;text-align:center;text-anchor:middle"
             y="222.26913"
             x="198.425"
             height="36.972359"
             width="198.425"
             id="rect846" /></flowRegion><flowPara
           id="flowPara848">en tout temps</flowPara></flowRoot></g><g
       style="enable-background:new"
       id="g1"
       transform="matrix(0.04786923,0,0,0.04786923,20.845256,248.81287)"><g
         id="g5596"
         transform="translate(-252.57,-146.86)"><path
           id="path4089"
           style="fill:#1c0660"
           d="m 439.81,664.97 -42,14 -2.6562,7.3125 3.4062,2.4375 c 22.453,-2.096 39.465,-0.51377 60.625,-3.75 h 1.2812 l 2,-6 -9.34,-11.35 z"
           sodipodi:nodetypes="ccccccccc"
           inkscape:connector-curvature="0"
           transform="translate(-0.73968,-430.8)" /><path
           id="path3006"
           d="m 479.85,251.95 8.6639,9.9968 v 33.989 l -7.331,-3.9987 z"
           style="fill:#6a40f2"
           transform="translate(-34.789,-14.459)"
           inkscape:connector-curvature="0" /><path
           id="path5395"
           style="fill:#666666;filter:url(#filter5480)"
           inkscape:connector-curvature="0"
           transform="translate(-962.49,49.523)"
           d="m 1334.2,201.3 -0.6665,-16.661 h -10.663 l 3.3323,19.994 z" /><g
           id="g5308"
           transform="translate(-204.91,34.54)"><ellipse
             id="path5292"
             style="fill:#6c5d53"
             transform="matrix(1.2222,0,0,-1.0435,85.308,374.05)"
             cx="397.5387"
             cy="203.30215"
             rx="32.98938"
             ry="45.985199" /><ellipse
             id="path3020"
             style="opacity:0.80738;fill:url(#pattern5285)"
             transform="matrix(-0.010194,-1.4793,-0.89996,0.012213,758.2,747.5)"
             cx="397.5387"
             cy="203.30215"
             rx="32.98938"
             ry="45.985199" /></g><ellipse
           id="path3018"
           style="fill:#333333"
           transform="matrix(1.2222,0,0,1.0435,-130.46,-17.297)"
           cx="397.5387"
           cy="203.30215"
           rx="32.98938"
           ry="45.985199" /><path
           id="path3012"
           style="fill:url(#linearGradient5521)"
           d="m 417.2,289.28 5.3316,-3.3323 -7.331,-95.972 c -4.425,-10.753 -9.7928,-16.793 -15.995,-18.661 -39.264,1.7312 -81.779,-1.1824 -109.3,17.328 l 1.9994,119.96 z"
           sodipodi:nodetypes="ccccccc"
           transform="translate(-34.789,-6.4588)"
           inkscape:connector-curvature="0" /><path
           id="path3004"
           style="fill:#1e0080"
           d="m 445.97,623.5 -45.5,4.0625 v 27.946 l 46.594,1.2105 z"
           sodipodi:nodetypes="ccccc"
           transform="translate(-0.73968,-378.8)"
           inkscape:connector-curvature="0" /><path
           id="path4043"
           style="opacity:0.64919;fill:url(#linearGradient4051)"
           d="m 445.97,623.5 -45.5,4.0625 v 28.055 l 46.594,1.1017 z"
           sodipodi:nodetypes="ccccc"
           inkscape:connector-curvature="0"
           transform="translate(-0.73968,-378.8)" /><path
           id="path3008"
           style="fill:#6a40f2"
           d="m 439.81,664.97 -42,14 -2.6562,7.3125 3.4062,2.4375 40.379,-11.573 14.18,0.47 6.0625,7.3438 h 1.2812 l 2,-6 -9.34,-11.34 z"
           sodipodi:nodetypes="ccccccccccc"
           transform="translate(-0.73968,-430.8)"
           inkscape:connector-curvature="0" /><path
           id="path2996"
           style="fill:#3c00ff"
           d="m 375.47,648.16 c -44.01,0.0162 -86.112,2.6422 -120.28,16.125 l 2.625,633 221.22,8.0938 -12.562,-652.75 -11.031,-3.4688 c -26.482,-0.0946 -53.563,-1.0097 -79.969,-1 z"
           sodipodi:nodetypes="scccccs"
           transform="translate(-0.73968,-372.8)"
           inkscape:connector-curvature="0" /><path
           id="path3816"
           d="m 375.47,648.16 c -44.01,0.0162 -86.112,2.6422 -120.28,16.125 l 2.625,633 221.22,8.0938 -12.562,-652.75 -11.031,-3.4688 c -26.482,-0.0946 -53.563,-1.0097 -79.969,-1 z m 103.62,660.94 -1.5,1.5937 1.5312,0.031 -0.0312,-1.625 z"
           style="opacity:0.5;fill:url(#linearGradient5527)"
           transform="translate(-0.73968,-372.8)"
           inkscape:connector-curvature="0" /><path
           id="path5314"
           style="fill:url(#linearGradient3989)"
           d="m 373.59,661.34 c -44.01,0.0162 -86.112,2.6422 -120.28,16.125 l 2.5625,619.75 221,8.0624 -12.31,-639.49 -11,-3.4688 c -26.482,-0.0946 -53.563,-1.0097 -79.969,-1 z"
           sodipodi:nodetypes="scccccs"
           transform="translate(-0.73968,-372.8)"
           inkscape:connector-curvature="0" /><path
           id="path3826"
           style="fill:url(#linearGradient5529)"
           d="m 375.47,648.16 c -44.01,0.0162 -86.112,2.6422 -120.28,16.125 l 2.625,633 221.22,8.0938 -12.562,-652.75 -11.031,-3.4688 c -26.482,-0.0946 -53.563,-1.0097 -79.969,-1 z"
           sodipodi:nodetypes="scccccs"
           transform="translate(-0.73968,-372.8)"
           inkscape:connector-curvature="0" /><path
           id="path2998"
           style="opacity:0.5;fill:#6a40f2"
           d="m 257.34,1297.1 7.2812,18.281 204.69,3.3126 8.4062,-13.406 z"
           sodipodi:nodetypes="ccccc"
           transform="translate(-0.73968,-372.8)"
           inkscape:connector-curvature="0" /><path
           id="path3000"
           d="m 456.5,711.5 13.219,655.53 8.9688,0.3438 c -0.44924,-31.799 -0.96756,-63.702 -1.5,-95.656 l -7.57,-393.57 c -0.12219,-6.0963 -0.2535,-12.186 -0.375,-18.281 -0.96554,-48.438 -1.9015,-96.836 -2.7812,-145.12 l -9.96,-3.13 z"
           style="opacity:0.5;fill:url(#linearGradient5523)"
           transform="translate(-0.73968,-434.8)"
           inkscape:connector-curvature="0" /></g></g></g></svg>
